<?xml version="1.0" encoding="utf-8"?>
<!-- Generator: Adobe Illustrator 16.0.0, SVG Export Plug-In . SVG Version: 6.00 Build 0)  -->
<!DOCTYPE svg PUBLIC "-//W3C//DTD SVG 1.1//EN" "http://www.w3.org/Graphics/SVG/1.1/DTD/svg11.dtd">
<svg version="1.1" id="Layer_1" xmlns="http://www.w3.org/2000/svg" xmlns:xlink="http://www.w3.org/1999/xlink" x="0px" y="0px"
	 viewBox="0 0 455 337" enable-background="new 0 0 455 337" xml:space="preserve">
<rect x="13.445" y="179.193" fill="#617A99" width="441.451" height="41.791"/>
<rect x="123.809" y="220.984" fill="#C47A80" width="110.362" height="41.789"/>
<g>
	<g>
		<line fill="none" stroke="#3A3B3F" stroke-miterlimit="10" x1="13.445" y1="312.923" x2="13.445" y2="311.923"/>
		
			<line fill="none" stroke="#3A3B3F" stroke-miterlimit="10" stroke-dasharray="2.0233,2.0233" x1="13.445" y1="309.899" x2="13.445" y2="153.091"/>
		<line fill="none" stroke="#3A3B3F" stroke-miterlimit="10" x1="13.445" y1="152.08" x2="13.445" y2="151.08"/>
	</g>
</g>
<text transform="matrix(1 0 0 1 0.5117 143.415)" fill="#232528" font-family="verdana" font-size="19.4212">&amp;st</text>
<g>
	<g>
		<line fill="none" stroke="#3A3B3F" stroke-miterlimit="10" x1="13.445" y1="312.923" x2="169.907" y2="312.923"/>
		<g>
			<polygon fill="#3A3B3F" points="168.813,316.662 175.289,312.923 168.813,309.184 			"/>
		</g>
	</g>
</g>
<text transform="matrix(1 0 0 1 59.7783 325.0596)" fill="#232528" font-family="verdana" font-size="12.9474">memory</text>
<text transform="matrix(1 0 0 1 185.7695 211.2725)" fill="#232528" font-family="verdana" font-size="19.4212">128 bytes</text>
<text transform="matrix(1 0 0 1 136.7617 253.0635)" fill="#232528" font-family="verdana" font-size="19.4212">32 bytes</text>
<g>
	<g>
		<line fill="none" stroke="#3A3B3F" stroke-miterlimit="10" x1="123.809" y1="312.923" x2="123.809" y2="311.923"/>
		
			<line fill="none" stroke="#3A3B3F" stroke-miterlimit="10" stroke-dasharray="2.0233,2.0233" x1="123.809" y1="309.899" x2="123.809" y2="153.092"/>
		<line fill="none" stroke="#3A3B3F" stroke-miterlimit="10" x1="123.809" y1="152.08" x2="123.809" y2="151.08"/>
	</g>
</g>
<text transform="matrix(1 0 0 1 98.2852 143.415)" fill="#232528" font-family="verdana" font-size="19.4212">&amp;st.b</text>
</svg>
