<?xml version="1.0" encoding="utf-8"?>
<!-- Generator: Adobe Illustrator 16.0.0, SVG Export Plug-In . SVG Version: 6.00 Build 0)  -->
<!DOCTYPE svg PUBLIC "-//W3C//DTD SVG 1.1//EN" "http://www.w3.org/Graphics/SVG/1.1/DTD/svg11.dtd">
<svg version="1.1" xmlns="http://www.w3.org/2000/svg" xmlns:xlink="http://www.w3.org/1999/xlink" x="0px" y="0px" viewBox="0 0 947 410" enable-background="new 0 0 947 410" xml:space="preserve">
<defs>
	<radialGradient id="background" cx="50%" cy="50%" r="70%">
		<stop  offset="0" style="stop-color:#80838F"/>
		<stop  offset="0.4168" style="stop-color:#626A72"/>
		<stop  offset="0.5378" style="stop-color:#606870"/>
		<stop  offset="0.6673" style="stop-color:#5B6269"/>
		<stop  offset="0.8011" style="stop-color:#51575E"/>
		<stop  offset="0.8759" style="stop-color:#42474D"/>
		<stop  offset="0.9518" style="stop-color:#303337"/>
		<stop  offset="1" style="stop-color:#1F1F22"/>
	</radialGradient>
	<radialGradient id="background-red" cx="50%" cy="50%" r="75%" > 
<stop offset="0%" style="stop-color:rgb(240,117,117);stop-opacity:1" />
<stop offset="28%" style="stop-color:rgb(191,99,99);stop-opacity:1" />
<stop offset="100%" style="stop-color:rgb(107,47,47);stop-opacity:1" />
	</radialGradient> 
</defs>
<g id="Layer_2" display="none">
	
		<rect x="166" y="3" display="inline" fill="none" stroke="#000000" stroke-width="4" stroke-miterlimit="10" width="85" height="38"/>
	
		<rect x="275" y="9" display="inline" fill="none" stroke="#000000" stroke-width="4" stroke-miterlimit="10" width="171" height="32"/>
	
		<rect x="474.5" y="9" display="inline" fill="none" stroke="#000000" stroke-width="4" stroke-miterlimit="10" width="56.5" height="32"/>
</g>
<g id="Layer_3">
	<line fill="none" stroke="#3A3B3F" stroke-width="4" stroke-miterlimit="10" x1="204.918" y1="41" x2="127.215" y2="109.654"/>
	<line fill="none" stroke="#3A3B3F" stroke-width="4" stroke-miterlimit="10" x1="360.5" y1="41" x2="365.398" y2="181.196"/>
	<line fill="none" stroke="#3A3B3F" stroke-width="4" stroke-miterlimit="10" x1="502.75" y1="41" x2="594.192" y2="114.873"/>
	<g>
		
		<rect id="background1" x="48.932" y="109.944" fill="url(#background)" width="155.986" height="80.602"/>
		<rect id="background1-red" x="48.932" y="109.944" fill="url(#background-red)" width="155.986" height="80.602" opacity="0"/>
		<linearGradient id="SVGID_1_" gradientUnits="userSpaceOnUse" x1="127.2153" y1="112.2637" x2="127.2153" y2="107.0449">
			<stop  offset="0" style="stop-color:#1A1A1A"/>
			<stop  offset="0.1281" style="stop-color:#2E6476"/>
			<stop  offset="0.4854" style="stop-color:#4EA3AC"/>
			<stop  offset="0.5122" style="stop-color:#50A6AF"/>
			<stop  offset="0.5294" style="stop-color:#59AEB7"/>
			<stop  offset="0.5439" style="stop-color:#66BCC6"/>
			<stop  offset="0.5468" style="stop-color:#6AC0CA"/>
			<stop  offset="0.566" style="stop-color:#63BBC8"/>
			<stop  offset="0.5932" style="stop-color:#51ABC4"/>
			<stop  offset="0.601" style="stop-color:#4AA6C2"/>
			<stop  offset="0.6954" style="stop-color:#428AAC"/>
			<stop  offset="0.8984" style="stop-color:#2D4274"/>
			<stop  offset="0.9754" style="stop-color:#25255D"/>
		</linearGradient>
		<rect x="51.832" y="107.045" fill="url(#SVGID_1_)" width="150.767" height="5.219"/>
		<g>
			<defs>
				<rect id="SVGID_2_" x="46.613" y="107.045" width="5.219" height="5.219"/>
			</defs>
			<clipPath id="SVGID_3_">
				<use xlink:href="#SVGID_2_"  overflow="visible"/>
			</clipPath>
			<radialGradient id="SVGID_4_" cx="51.8193" cy="112.252" r="5.2065" gradientUnits="userSpaceOnUse">
				<stop  offset="0" style="stop-color:#1A1A1A"/>
				<stop  offset="0.1281" style="stop-color:#2E6476"/>
				<stop  offset="0.4854" style="stop-color:#4EA3AC"/>
				<stop  offset="0.5122" style="stop-color:#50A6AF"/>
				<stop  offset="0.5294" style="stop-color:#59AEB7"/>
				<stop  offset="0.5439" style="stop-color:#66BCC6"/>
				<stop  offset="0.5468" style="stop-color:#6AC0CA"/>
				<stop  offset="0.566" style="stop-color:#63BBC8"/>
				<stop  offset="0.5932" style="stop-color:#51ABC4"/>
				<stop  offset="0.601" style="stop-color:#4AA6C2"/>
				<stop  offset="0.6954" style="stop-color:#428AAC"/>
				<stop  offset="0.8984" style="stop-color:#2D4274"/>
				<stop  offset="0.9754" style="stop-color:#25255D"/>
			</radialGradient>
			<circle clip-path="url(#SVGID_3_)" fill="url(#SVGID_4_)" cx="51.819" cy="112.252" r="5.207"/>
		</g>
		<g>
			<defs>
				<rect id="SVGID_5_" x="46.613" y="187.647" width="5.219" height="5.219"/>
			</defs>
			<clipPath id="SVGID_6_">
				<use xlink:href="#SVGID_5_"  overflow="visible"/>
			</clipPath>
			
				<radialGradient id="SVGID_7_" cx="263.3408" cy="-238.1812" r="5.2068" gradientTransform="matrix(0 -1 1 0 290.0005 451)" gradientUnits="userSpaceOnUse">
				<stop  offset="0" style="stop-color:#1A1A1A"/>
				<stop  offset="0.1281" style="stop-color:#2E6476"/>
				<stop  offset="0.4854" style="stop-color:#4EA3AC"/>
				<stop  offset="0.5122" style="stop-color:#50A6AF"/>
				<stop  offset="0.5294" style="stop-color:#59AEB7"/>
				<stop  offset="0.5439" style="stop-color:#66BCC6"/>
				<stop  offset="0.5468" style="stop-color:#6AC0CA"/>
				<stop  offset="0.566" style="stop-color:#63BBC8"/>
				<stop  offset="0.5932" style="stop-color:#51ABC4"/>
				<stop  offset="0.601" style="stop-color:#4AA6C2"/>
				<stop  offset="0.6954" style="stop-color:#428AAC"/>
				<stop  offset="0.8984" style="stop-color:#2D4274"/>
				<stop  offset="0.9754" style="stop-color:#25255D"/>
			</radialGradient>
			<circle clip-path="url(#SVGID_6_)" fill="url(#SVGID_7_)" cx="51.82" cy="187.659" r="5.207"/>
		</g>
		<g>
			<defs>
				<rect id="SVGID_8_" x="202.599" y="107.045" width="5.219" height="5.219"/>
			</defs>
			<clipPath id="SVGID_9_">
				<use xlink:href="#SVGID_8_"  overflow="visible"/>
			</clipPath>
			
				<radialGradient id="SVGID_10_" cx="732.251" cy="356.3906" r="5.207" gradientTransform="matrix(0 1 -1 0 559 -619.999)" gradientUnits="userSpaceOnUse">
				<stop  offset="0" style="stop-color:#1A1A1A"/>
				<stop  offset="0.1281" style="stop-color:#2E6476"/>
				<stop  offset="0.4854" style="stop-color:#4EA3AC"/>
				<stop  offset="0.5122" style="stop-color:#50A6AF"/>
				<stop  offset="0.5294" style="stop-color:#59AEB7"/>
				<stop  offset="0.5439" style="stop-color:#66BCC6"/>
				<stop  offset="0.5468" style="stop-color:#6AC0CA"/>
				<stop  offset="0.566" style="stop-color:#63BBC8"/>
				<stop  offset="0.5932" style="stop-color:#51ABC4"/>
				<stop  offset="0.601" style="stop-color:#4AA6C2"/>
				<stop  offset="0.6954" style="stop-color:#428AAC"/>
				<stop  offset="0.8984" style="stop-color:#2D4274"/>
				<stop  offset="0.9754" style="stop-color:#25255D"/>
			</radialGradient>
			<circle clip-path="url(#SVGID_9_)" fill="url(#SVGID_10_)" cx="202.61" cy="112.252" r="5.207"/>
		</g>
		
			<linearGradient id="SVGID_11_" gradientUnits="userSpaceOnUse" x1="247.5454" y1="-575.6689" x2="247.5454" y2="-580.8877" gradientTransform="matrix(0 -1 1 0 627.5 397.5)">
			<stop  offset="0" style="stop-color:#1A1A1A"/>
			<stop  offset="0.1281" style="stop-color:#2E6476"/>
			<stop  offset="0.4854" style="stop-color:#4EA3AC"/>
			<stop  offset="0.5122" style="stop-color:#50A6AF"/>
			<stop  offset="0.5294" style="stop-color:#59AEB7"/>
			<stop  offset="0.5439" style="stop-color:#66BCC6"/>
			<stop  offset="0.5468" style="stop-color:#6AC0CA"/>
			<stop  offset="0.566" style="stop-color:#63BBC8"/>
			<stop  offset="0.5932" style="stop-color:#51ABC4"/>
			<stop  offset="0.601" style="stop-color:#4AA6C2"/>
			<stop  offset="0.6954" style="stop-color:#428AAC"/>
			<stop  offset="0.8984" style="stop-color:#2D4274"/>
			<stop  offset="0.9754" style="stop-color:#25255D"/>
		</linearGradient>
		<rect x="46.613" y="112.264" fill="url(#SVGID_11_)" width="5.219" height="75.383"/>
		
			<linearGradient id="SVGID_12_" gradientUnits="userSpaceOnUse" x1="763.7842" y1="-174.647" x2="763.7842" y2="-179.8657" gradientTransform="matrix(-1 0 0 -1 891 13)">
			<stop  offset="0" style="stop-color:#1A1A1A"/>
			<stop  offset="0.1281" style="stop-color:#2E6476"/>
			<stop  offset="0.4854" style="stop-color:#4EA3AC"/>
			<stop  offset="0.5122" style="stop-color:#50A6AF"/>
			<stop  offset="0.5294" style="stop-color:#59AEB7"/>
			<stop  offset="0.5439" style="stop-color:#66BCC6"/>
			<stop  offset="0.5468" style="stop-color:#6AC0CA"/>
			<stop  offset="0.566" style="stop-color:#63BBC8"/>
			<stop  offset="0.5932" style="stop-color:#51ABC4"/>
			<stop  offset="0.601" style="stop-color:#4AA6C2"/>
			<stop  offset="0.6954" style="stop-color:#428AAC"/>
			<stop  offset="0.8984" style="stop-color:#2D4274"/>
			<stop  offset="0.9754" style="stop-color:#25255D"/>
		</linearGradient>
		<rect x="51.832" y="187.647" fill="url(#SVGID_12_)" width="150.767" height="5.219"/>
		
			<linearGradient id="SVGID_13_" gradientUnits="userSpaceOnUse" x1="589.4551" y1="248.9014" x2="589.4551" y2="243.6826" gradientTransform="matrix(0 1 -1 0 451.5 -439.5)">
			<stop  offset="0" style="stop-color:#1A1A1A"/>
			<stop  offset="0.1281" style="stop-color:#2E6476"/>
			<stop  offset="0.4854" style="stop-color:#4EA3AC"/>
			<stop  offset="0.5122" style="stop-color:#50A6AF"/>
			<stop  offset="0.5294" style="stop-color:#59AEB7"/>
			<stop  offset="0.5439" style="stop-color:#66BCC6"/>
			<stop  offset="0.5468" style="stop-color:#6AC0CA"/>
			<stop  offset="0.566" style="stop-color:#63BBC8"/>
			<stop  offset="0.5932" style="stop-color:#51ABC4"/>
			<stop  offset="0.601" style="stop-color:#4AA6C2"/>
			<stop  offset="0.6954" style="stop-color:#428AAC"/>
			<stop  offset="0.8984" style="stop-color:#2D4274"/>
			<stop  offset="0.9754" style="stop-color:#25255D"/>
		</linearGradient>
		<rect x="202.599" y="112.264" fill="url(#SVGID_13_)" width="5.219" height="75.383"/>
		<g>
			<defs>
				<rect id="SVGID_14_" x="202.599" y="187.647" width="5.219" height="5.219"/>
			</defs>
			<clipPath id="SVGID_15_">
				<use xlink:href="#SVGID_14_"  overflow="visible"/>
			</clipPath>
			
				<radialGradient id="SVGID_16_" cx="1076.3906" cy="-26.6592" r="5.207" gradientTransform="matrix(-1 0 0 -1 1279 161)" gradientUnits="userSpaceOnUse">
				<stop  offset="0" style="stop-color:#1A1A1A"/>
				<stop  offset="0.1281" style="stop-color:#2E6476"/>
				<stop  offset="0.4854" style="stop-color:#4EA3AC"/>
				<stop  offset="0.5122" style="stop-color:#50A6AF"/>
				<stop  offset="0.5294" style="stop-color:#59AEB7"/>
				<stop  offset="0.5439" style="stop-color:#66BCC6"/>
				<stop  offset="0.5468" style="stop-color:#6AC0CA"/>
				<stop  offset="0.566" style="stop-color:#63BBC8"/>
				<stop  offset="0.5932" style="stop-color:#51ABC4"/>
				<stop  offset="0.601" style="stop-color:#4AA6C2"/>
				<stop  offset="0.6954" style="stop-color:#428AAC"/>
				<stop  offset="0.8984" style="stop-color:#2D4274"/>
				<stop  offset="0.9754" style="stop-color:#25255D"/>
			</radialGradient>
			<circle clip-path="url(#SVGID_15_)" fill="url(#SVGID_16_)" cx="202.61" cy="187.659" r="5.207"/>
		</g>
	</g>
	<g>
		<rect id="background2" x="515.91" y="115.163" fill="url(#background)" width="155.985" height="80.602"/>
		<rect id="background2-red" x="515.91" y="115.163" fill="url(#background-red)" width="155.985" height="80.602" opacity="0"/>
		<linearGradient id="SVGID_17_" gradientUnits="userSpaceOnUse" x1="594.1924" y1="117.4824" x2="594.1924" y2="112.2637">
			<stop  offset="0" style="stop-color:#1A1A1A"/>
			<stop  offset="0.1281" style="stop-color:#2E6476"/>
			<stop  offset="0.4854" style="stop-color:#4EA3AC"/>
			<stop  offset="0.5122" style="stop-color:#50A6AF"/>
			<stop  offset="0.5294" style="stop-color:#59AEB7"/>
			<stop  offset="0.5439" style="stop-color:#66BCC6"/>
			<stop  offset="0.5468" style="stop-color:#6AC0CA"/>
			<stop  offset="0.566" style="stop-color:#63BBC8"/>
			<stop  offset="0.5932" style="stop-color:#51ABC4"/>
			<stop  offset="0.601" style="stop-color:#4AA6C2"/>
			<stop  offset="0.6954" style="stop-color:#428AAC"/>
			<stop  offset="0.8984" style="stop-color:#2D4274"/>
			<stop  offset="0.9754" style="stop-color:#25255D"/>
		</linearGradient>
		<rect x="518.809" y="112.264" fill="url(#SVGID_17_)" width="150.768" height="5.219"/>
		
			<linearGradient id="SVGID_18_" gradientUnits="userSpaceOnUse" x1="594.6738" y1="-218.0767" x2="594.6738" y2="-223.2954" gradientTransform="matrix(0 1 -1 0 451.5 -439.5)">
			<stop  offset="0" style="stop-color:#1A1A1A"/>
			<stop  offset="0.1281" style="stop-color:#2E6476"/>
			<stop  offset="0.4854" style="stop-color:#4EA3AC"/>
			<stop  offset="0.5122" style="stop-color:#50A6AF"/>
			<stop  offset="0.5294" style="stop-color:#59AEB7"/>
			<stop  offset="0.5439" style="stop-color:#66BCC6"/>
			<stop  offset="0.5468" style="stop-color:#6AC0CA"/>
			<stop  offset="0.566" style="stop-color:#63BBC8"/>
			<stop  offset="0.5932" style="stop-color:#51ABC4"/>
			<stop  offset="0.601" style="stop-color:#4AA6C2"/>
			<stop  offset="0.6954" style="stop-color:#428AAC"/>
			<stop  offset="0.8984" style="stop-color:#2D4274"/>
			<stop  offset="0.9754" style="stop-color:#25255D"/>
		</linearGradient>
		<rect x="669.576" y="117.482" fill="url(#SVGID_18_)" width="5.219" height="75.383"/>
		<g>
			<defs>
				<rect id="SVGID_19_" x="513.59" y="112.264" width="5.219" height="5.219"/>
			</defs>
			<clipPath id="SVGID_20_">
				<use xlink:href="#SVGID_19_"  overflow="visible"/>
			</clipPath>
			<radialGradient id="SVGID_21_" cx="518.7969" cy="117.4707" r="5.2068" gradientUnits="userSpaceOnUse">
				<stop  offset="0" style="stop-color:#1A1A1A"/>
				<stop  offset="0.1281" style="stop-color:#2E6476"/>
				<stop  offset="0.4854" style="stop-color:#4EA3AC"/>
				<stop  offset="0.5122" style="stop-color:#50A6AF"/>
				<stop  offset="0.5294" style="stop-color:#59AEB7"/>
				<stop  offset="0.5439" style="stop-color:#66BCC6"/>
				<stop  offset="0.5468" style="stop-color:#6AC0CA"/>
				<stop  offset="0.566" style="stop-color:#63BBC8"/>
				<stop  offset="0.5932" style="stop-color:#51ABC4"/>
				<stop  offset="0.601" style="stop-color:#4AA6C2"/>
				<stop  offset="0.6954" style="stop-color:#428AAC"/>
				<stop  offset="0.8984" style="stop-color:#2D4274"/>
				<stop  offset="0.9754" style="stop-color:#25255D"/>
			</radialGradient>
			<circle clip-path="url(#SVGID_20_)" fill="url(#SVGID_21_)" cx="518.797" cy="117.471" r="5.207"/>
		</g>
		<g>
			<defs>
				<rect id="SVGID_22_" x="669.576" y="192.866" width="5.219" height="5.219"/>
			</defs>
			<clipPath id="SVGID_23_">
				<use xlink:href="#SVGID_22_"  overflow="visible"/>
			</clipPath>
			
				<radialGradient id="SVGID_24_" cx="609.4121" cy="-31.8779" r="5.2075" gradientTransform="matrix(-1 0 0 -1 1279 161)" gradientUnits="userSpaceOnUse">
				<stop  offset="0" style="stop-color:#1A1A1A"/>
				<stop  offset="0.1281" style="stop-color:#2E6476"/>
				<stop  offset="0.4854" style="stop-color:#4EA3AC"/>
				<stop  offset="0.5122" style="stop-color:#50A6AF"/>
				<stop  offset="0.5294" style="stop-color:#59AEB7"/>
				<stop  offset="0.5439" style="stop-color:#66BCC6"/>
				<stop  offset="0.5468" style="stop-color:#6AC0CA"/>
				<stop  offset="0.566" style="stop-color:#63BBC8"/>
				<stop  offset="0.5932" style="stop-color:#51ABC4"/>
				<stop  offset="0.601" style="stop-color:#4AA6C2"/>
				<stop  offset="0.6954" style="stop-color:#428AAC"/>
				<stop  offset="0.8984" style="stop-color:#2D4274"/>
				<stop  offset="0.9754" style="stop-color:#25255D"/>
			</radialGradient>
			<circle clip-path="url(#SVGID_23_)" fill="url(#SVGID_24_)" cx="669.587" cy="192.878" r="5.208"/>
		</g>
		<g>
			<defs>
				<rect id="SVGID_25_" x="669.576" y="112.264" width="5.219" height="5.219"/>
			</defs>
			<clipPath id="SVGID_26_">
				<use xlink:href="#SVGID_25_"  overflow="visible"/>
			</clipPath>
			
				<radialGradient id="SVGID_27_" cx="737.4697" cy="-110.5874" r="5.2073" gradientTransform="matrix(0 1 -1 0 559 -619.999)" gradientUnits="userSpaceOnUse">
				<stop  offset="0" style="stop-color:#1A1A1A"/>
				<stop  offset="0.1281" style="stop-color:#2E6476"/>
				<stop  offset="0.4854" style="stop-color:#4EA3AC"/>
				<stop  offset="0.5122" style="stop-color:#50A6AF"/>
				<stop  offset="0.5294" style="stop-color:#59AEB7"/>
				<stop  offset="0.5439" style="stop-color:#66BCC6"/>
				<stop  offset="0.5468" style="stop-color:#6AC0CA"/>
				<stop  offset="0.566" style="stop-color:#63BBC8"/>
				<stop  offset="0.5932" style="stop-color:#51ABC4"/>
				<stop  offset="0.601" style="stop-color:#4AA6C2"/>
				<stop  offset="0.6954" style="stop-color:#428AAC"/>
				<stop  offset="0.8984" style="stop-color:#2D4274"/>
				<stop  offset="0.9754" style="stop-color:#25255D"/>
			</radialGradient>
			<circle clip-path="url(#SVGID_26_)" fill="url(#SVGID_27_)" cx="669.587" cy="117.47" r="5.207"/>
		</g>
		
			<linearGradient id="SVGID_28_" gradientUnits="userSpaceOnUse" x1="296.8071" y1="-179.8657" x2="296.8071" y2="-185.0845" gradientTransform="matrix(-1 0 0 -1 891 13)">
			<stop  offset="0" style="stop-color:#1A1A1A"/>
			<stop  offset="0.1281" style="stop-color:#2E6476"/>
			<stop  offset="0.4854" style="stop-color:#4EA3AC"/>
			<stop  offset="0.5122" style="stop-color:#50A6AF"/>
			<stop  offset="0.5294" style="stop-color:#59AEB7"/>
			<stop  offset="0.5439" style="stop-color:#66BCC6"/>
			<stop  offset="0.5468" style="stop-color:#6AC0CA"/>
			<stop  offset="0.566" style="stop-color:#63BBC8"/>
			<stop  offset="0.5932" style="stop-color:#51ABC4"/>
			<stop  offset="0.601" style="stop-color:#4AA6C2"/>
			<stop  offset="0.6954" style="stop-color:#428AAC"/>
			<stop  offset="0.8984" style="stop-color:#2D4274"/>
			<stop  offset="0.9754" style="stop-color:#25255D"/>
		</linearGradient>
		<rect x="518.809" y="192.866" fill="url(#SVGID_28_)" width="150.768" height="5.219"/>
		<g>
			<defs>
				<rect id="SVGID_29_" x="513.59" y="192.866" width="5.219" height="5.219"/>
			</defs>
			<clipPath id="SVGID_30_">
				<use xlink:href="#SVGID_29_"  overflow="visible"/>
			</clipPath>
			
				<radialGradient id="SVGID_31_" cx="258.1221" cy="228.7959" r="5.207" gradientTransform="matrix(0 -1 1 0 290.0005 451)" gradientUnits="userSpaceOnUse">
				<stop  offset="0" style="stop-color:#1A1A1A"/>
				<stop  offset="0.1281" style="stop-color:#2E6476"/>
				<stop  offset="0.4854" style="stop-color:#4EA3AC"/>
				<stop  offset="0.5122" style="stop-color:#50A6AF"/>
				<stop  offset="0.5294" style="stop-color:#59AEB7"/>
				<stop  offset="0.5439" style="stop-color:#66BCC6"/>
				<stop  offset="0.5468" style="stop-color:#6AC0CA"/>
				<stop  offset="0.566" style="stop-color:#63BBC8"/>
				<stop  offset="0.5932" style="stop-color:#51ABC4"/>
				<stop  offset="0.601" style="stop-color:#4AA6C2"/>
				<stop  offset="0.6954" style="stop-color:#428AAC"/>
				<stop  offset="0.8984" style="stop-color:#2D4274"/>
				<stop  offset="0.9754" style="stop-color:#25255D"/>
			</radialGradient>
			<circle clip-path="url(#SVGID_30_)" fill="url(#SVGID_31_)" cx="518.797" cy="192.878" r="5.207"/>
		</g>
		
			<linearGradient id="SVGID_32_" gradientUnits="userSpaceOnUse" x1="242.3267" y1="-108.6919" x2="242.3267" y2="-113.9106" gradientTransform="matrix(0 -1 1 0 627.5 397.5)">
			<stop  offset="0" style="stop-color:#1A1A1A"/>
			<stop  offset="0.1281" style="stop-color:#2E6476"/>
			<stop  offset="0.4854" style="stop-color:#4EA3AC"/>
			<stop  offset="0.5122" style="stop-color:#50A6AF"/>
			<stop  offset="0.5294" style="stop-color:#59AEB7"/>
			<stop  offset="0.5439" style="stop-color:#66BCC6"/>
			<stop  offset="0.5468" style="stop-color:#6AC0CA"/>
			<stop  offset="0.566" style="stop-color:#63BBC8"/>
			<stop  offset="0.5932" style="stop-color:#51ABC4"/>
			<stop  offset="0.601" style="stop-color:#4AA6C2"/>
			<stop  offset="0.6954" style="stop-color:#428AAC"/>
			<stop  offset="0.8984" style="stop-color:#2D4274"/>
			<stop  offset="0.9754" style="stop-color:#25255D"/>
		</linearGradient>
		<rect x="513.59" y="117.482" fill="url(#SVGID_32_)" width="5.219" height="75.383"/>
	</g>
	<g>
		<rect id="background3" x="287.115" y="181.486" fill="url(#background)" width="155.985" height="80.602"/>
		<rect id="background3-red" x="287.115" y="181.486" fill="url(#background-red)" width="155.985" height="80.602" opacity="0"/>
		<linearGradient id="SVGID_33_" gradientUnits="userSpaceOnUse" x1="365.3979" y1="183.8052" x2="365.3979" y2="178.5864">
			<stop  offset="0" style="stop-color:#1A1A1A"/>
			<stop  offset="0.1281" style="stop-color:#2E6476"/>
			<stop  offset="0.4854" style="stop-color:#4EA3AC"/>
			<stop  offset="0.5122" style="stop-color:#50A6AF"/>
			<stop  offset="0.5294" style="stop-color:#59AEB7"/>
			<stop  offset="0.5439" style="stop-color:#66BCC6"/>
			<stop  offset="0.5468" style="stop-color:#6AC0CA"/>
			<stop  offset="0.566" style="stop-color:#63BBC8"/>
			<stop  offset="0.5932" style="stop-color:#51ABC4"/>
			<stop  offset="0.601" style="stop-color:#4AA6C2"/>
			<stop  offset="0.6954" style="stop-color:#428AAC"/>
			<stop  offset="0.8984" style="stop-color:#2D4274"/>
			<stop  offset="0.9754" style="stop-color:#25255D"/>
		</linearGradient>
		<rect x="290.015" y="178.586" fill="url(#SVGID_33_)" width="150.767" height="5.219"/>
		
			<linearGradient id="SVGID_34_" gradientUnits="userSpaceOnUse" x1="525.6016" y1="-246.187" x2="525.6016" y2="-251.4058" gradientTransform="matrix(-1 0 0 -1 891 13)">
			<stop  offset="0" style="stop-color:#1A1A1A"/>
			<stop  offset="0.1281" style="stop-color:#2E6476"/>
			<stop  offset="0.4854" style="stop-color:#4EA3AC"/>
			<stop  offset="0.5122" style="stop-color:#50A6AF"/>
			<stop  offset="0.5294" style="stop-color:#59AEB7"/>
			<stop  offset="0.5439" style="stop-color:#66BCC6"/>
			<stop  offset="0.5468" style="stop-color:#6AC0CA"/>
			<stop  offset="0.566" style="stop-color:#63BBC8"/>
			<stop  offset="0.5932" style="stop-color:#51ABC4"/>
			<stop  offset="0.601" style="stop-color:#4AA6C2"/>
			<stop  offset="0.6954" style="stop-color:#428AAC"/>
			<stop  offset="0.8984" style="stop-color:#2D4274"/>
			<stop  offset="0.9754" style="stop-color:#25255D"/>
		</linearGradient>
		<rect x="290.015" y="259.188" fill="url(#SVGID_34_)" width="150.767" height="5.219"/>
		
			<linearGradient id="SVGID_35_" gradientUnits="userSpaceOnUse" x1="660.9961" y1="10.7183" x2="660.9961" y2="5.4995" gradientTransform="matrix(0 1 -1 0 451.5 -439.5)">
			<stop  offset="0" style="stop-color:#1A1A1A"/>
			<stop  offset="0.1281" style="stop-color:#2E6476"/>
			<stop  offset="0.4854" style="stop-color:#4EA3AC"/>
			<stop  offset="0.5122" style="stop-color:#50A6AF"/>
			<stop  offset="0.5294" style="stop-color:#59AEB7"/>
			<stop  offset="0.5439" style="stop-color:#66BCC6"/>
			<stop  offset="0.5468" style="stop-color:#6AC0CA"/>
			<stop  offset="0.566" style="stop-color:#63BBC8"/>
			<stop  offset="0.5932" style="stop-color:#51ABC4"/>
			<stop  offset="0.601" style="stop-color:#4AA6C2"/>
			<stop  offset="0.6954" style="stop-color:#428AAC"/>
			<stop  offset="0.8984" style="stop-color:#2D4274"/>
			<stop  offset="0.9754" style="stop-color:#25255D"/>
		</linearGradient>
		<rect x="440.781" y="183.805" fill="url(#SVGID_35_)" width="5.219" height="75.382"/>
		<g>
			<defs>
				<rect id="SVGID_36_" x="284.795" y="178.586" width="5.219" height="5.219"/>
			</defs>
			<clipPath id="SVGID_37_">
				<use xlink:href="#SVGID_36_"  overflow="visible"/>
			</clipPath>
			<radialGradient id="SVGID_38_" cx="290.002" cy="183.793" r="5.207" gradientUnits="userSpaceOnUse">
				<stop  offset="0" style="stop-color:#1A1A1A"/>
				<stop  offset="0.1281" style="stop-color:#2E6476"/>
				<stop  offset="0.4854" style="stop-color:#4EA3AC"/>
				<stop  offset="0.5122" style="stop-color:#50A6AF"/>
				<stop  offset="0.5294" style="stop-color:#59AEB7"/>
				<stop  offset="0.5439" style="stop-color:#66BCC6"/>
				<stop  offset="0.5468" style="stop-color:#6AC0CA"/>
				<stop  offset="0.566" style="stop-color:#63BBC8"/>
				<stop  offset="0.5932" style="stop-color:#51ABC4"/>
				<stop  offset="0.601" style="stop-color:#4AA6C2"/>
				<stop  offset="0.6954" style="stop-color:#428AAC"/>
				<stop  offset="0.8984" style="stop-color:#2D4274"/>
				<stop  offset="0.9754" style="stop-color:#25255D"/>
			</radialGradient>
			<circle clip-path="url(#SVGID_37_)" fill="url(#SVGID_38_)" cx="290.002" cy="183.793" r="5.207"/>
		</g>
		<g>
			<defs>
				<rect id="SVGID_39_" x="284.795" y="259.188" width="5.219" height="5.219"/>
			</defs>
			<clipPath id="SVGID_40_">
				<use xlink:href="#SVGID_39_"  overflow="visible"/>
			</clipPath>
			
				<radialGradient id="SVGID_41_" cx="191.8008" cy="0.002" r="5.2068" gradientTransform="matrix(0 -1 1 0 290.0005 451)" gradientUnits="userSpaceOnUse">
				<stop  offset="0" style="stop-color:#1A1A1A"/>
				<stop  offset="0.1281" style="stop-color:#2E6476"/>
				<stop  offset="0.4854" style="stop-color:#4EA3AC"/>
				<stop  offset="0.5122" style="stop-color:#50A6AF"/>
				<stop  offset="0.5294" style="stop-color:#59AEB7"/>
				<stop  offset="0.5439" style="stop-color:#66BCC6"/>
				<stop  offset="0.5468" style="stop-color:#6AC0CA"/>
				<stop  offset="0.566" style="stop-color:#63BBC8"/>
				<stop  offset="0.5932" style="stop-color:#51ABC4"/>
				<stop  offset="0.601" style="stop-color:#4AA6C2"/>
				<stop  offset="0.6954" style="stop-color:#428AAC"/>
				<stop  offset="0.8984" style="stop-color:#2D4274"/>
				<stop  offset="0.9754" style="stop-color:#25255D"/>
			</radialGradient>
			<circle clip-path="url(#SVGID_40_)" fill="url(#SVGID_41_)" cx="290.002" cy="259.199" r="5.207"/>
		</g>
		<g>
			<defs>
				<rect id="SVGID_42_" x="440.781" y="259.188" width="5.219" height="5.219"/>
			</defs>
			<clipPath id="SVGID_43_">
				<use xlink:href="#SVGID_42_"  overflow="visible"/>
			</clipPath>
			
				<radialGradient id="SVGID_44_" cx="838.207" cy="-98.1992" r="5.207" gradientTransform="matrix(-1 0 0 -1 1279 161)" gradientUnits="userSpaceOnUse">
				<stop  offset="0" style="stop-color:#1A1A1A"/>
				<stop  offset="0.1281" style="stop-color:#2E6476"/>
				<stop  offset="0.4854" style="stop-color:#4EA3AC"/>
				<stop  offset="0.5122" style="stop-color:#50A6AF"/>
				<stop  offset="0.5294" style="stop-color:#59AEB7"/>
				<stop  offset="0.5439" style="stop-color:#66BCC6"/>
				<stop  offset="0.5468" style="stop-color:#6AC0CA"/>
				<stop  offset="0.566" style="stop-color:#63BBC8"/>
				<stop  offset="0.5932" style="stop-color:#51ABC4"/>
				<stop  offset="0.601" style="stop-color:#4AA6C2"/>
				<stop  offset="0.6954" style="stop-color:#428AAC"/>
				<stop  offset="0.8984" style="stop-color:#2D4274"/>
				<stop  offset="0.9754" style="stop-color:#25255D"/>
			</radialGradient>
			<circle clip-path="url(#SVGID_43_)" fill="url(#SVGID_44_)" cx="440.793" cy="259.199" r="5.207"/>
		</g>
		<g>
			<defs>
				<rect id="SVGID_45_" x="440.781" y="178.586" width="5.219" height="5.219"/>
			</defs>
			<clipPath id="SVGID_46_">
				<use xlink:href="#SVGID_45_"  overflow="visible"/>
			</clipPath>
			
				<radialGradient id="SVGID_47_" cx="803.793" cy="118.207" r="5.2065" gradientTransform="matrix(0 1 -1 0 559 -619.999)" gradientUnits="userSpaceOnUse">
				<stop  offset="0" style="stop-color:#1A1A1A"/>
				<stop  offset="0.1281" style="stop-color:#2E6476"/>
				<stop  offset="0.4854" style="stop-color:#4EA3AC"/>
				<stop  offset="0.5122" style="stop-color:#50A6AF"/>
				<stop  offset="0.5294" style="stop-color:#59AEB7"/>
				<stop  offset="0.5439" style="stop-color:#66BCC6"/>
				<stop  offset="0.5468" style="stop-color:#6AC0CA"/>
				<stop  offset="0.566" style="stop-color:#63BBC8"/>
				<stop  offset="0.5932" style="stop-color:#51ABC4"/>
				<stop  offset="0.601" style="stop-color:#4AA6C2"/>
				<stop  offset="0.6954" style="stop-color:#428AAC"/>
				<stop  offset="0.8984" style="stop-color:#2D4274"/>
				<stop  offset="0.9754" style="stop-color:#25255D"/>
			</radialGradient>
			<circle clip-path="url(#SVGID_46_)" fill="url(#SVGID_47_)" cx="440.793" cy="183.793" r="5.207"/>
		</g>
		
			<linearGradient id="SVGID_48_" gradientUnits="userSpaceOnUse" x1="176.0044" y1="-337.4858" x2="176.0044" y2="-342.7051" gradientTransform="matrix(0 -1 1 0 627.5 397.5)">
			<stop  offset="0" style="stop-color:#1A1A1A"/>
			<stop  offset="0.1281" style="stop-color:#2E6476"/>
			<stop  offset="0.4854" style="stop-color:#4EA3AC"/>
			<stop  offset="0.5122" style="stop-color:#50A6AF"/>
			<stop  offset="0.5294" style="stop-color:#59AEB7"/>
			<stop  offset="0.5439" style="stop-color:#66BCC6"/>
			<stop  offset="0.5468" style="stop-color:#6AC0CA"/>
			<stop  offset="0.566" style="stop-color:#63BBC8"/>
			<stop  offset="0.5932" style="stop-color:#51ABC4"/>
			<stop  offset="0.601" style="stop-color:#4AA6C2"/>
			<stop  offset="0.6954" style="stop-color:#428AAC"/>
			<stop  offset="0.8984" style="stop-color:#2D4274"/>
			<stop  offset="0.9754" style="stop-color:#25255D"/>
		</linearGradient>
		<rect x="284.795" y="183.805" fill="url(#SVGID_48_)" width="5.219" height="75.382"/>
	</g>
	<line fill="none" stroke="#3A3B3F" stroke-width="4" stroke-miterlimit="10" x1="166" y1="41" x2="251" y2="41"/>
	<line fill="none" stroke="#3A3B3F" stroke-width="4" stroke-miterlimit="10" x1="277" y1="41" x2="445.101" y2="41"/>
	<line fill="none" stroke="#3A3B3F" stroke-width="4" stroke-miterlimit="10" x1="478.5" y1="41" x2="535" y2="41"/>
	<text transform="matrix(1 0 0 1 66.6128 172.8657)" fill="#232528" font-family="verdana" font-size="24">in/out</text>
	<text transform="matrix(1 0 0 1 533.5898 178.0845)" fill="#232528" font-family="verdana" font-size="24">input</text>
	<text transform="matrix(1 0 0 1 304.7954 244.4063)" fill="#232528" font-family="verdana" font-size="24">input</text>
</g>
</svg>
