<?xml version="1.0" standalone="no"?>
<!DOCTYPE svg PUBLIC "-//W3C//DTD SVG 1.1//EN"
  "http://www.w3.org/Graphics/SVG/1.1/DTD/svg11.dtd">
<svg width="583.05px" height="248.03px" version="1.1"
    xmlns="http://www.w3.org/2000/svg"
    xmlns:xlink="http://www.w3.org/1999/xlink">
<desc>Veusz output document</desc>
<defs>
<clipPath id="c0">
<path d="m0,0l583.05,0l0,248.03l-583.05,0l0,-248.03"/>
</clipPath>
<clipPath id="c1">
<path d="m60.23,7.08l465.09,0l0,180.7l-465.09,0l0,-180.7"/>
</clipPath>
</defs>
<g stroke-linejoin="bevel" stroke-linecap="square" stroke="#000000" fill-rule="evenodd">
<g clip-path="url(#c0)">
<g fill="none" stroke-width="0.62">
<path d="m60.23,7.08l465.09,0l0,180.7l-465.09,0l0,-180.7"/>
</g>
</g>
<g clip-path="url(#c1)">
<g fill="none" stroke="#008000" stroke-width="2.5">
<polyline fill="none" points="60.23,173.31 126.67,160.72 259.56,134.15 525.33,89.69"/>
</g>
<g fill="#008000" stroke="none" stroke-linejoin="miter" stroke-width="1">
<g transform="translate(60.23,173.31)">
<path d="m5,0c0,2.76,-2.23,5,-5,5c-2.76,0,-5,-2.23,-5,-5c0,-2.76,2.23,-5,5,-5c2.76,0,5,2.23,5,5" id="p0"/>
</g>
<use xlink:href="#p0" x="126.67" y="160.72"/>
<use xlink:href="#p0" x="259.56" y="134.15"/>
<use xlink:href="#p0" x="525.33" y="89.69"/>
</g>
<g fill="none" stroke="#0000ff" stroke-width="2.5">
<polyline fill="none" points="60.23,161.49 126.67,140.95 259.56,92.17 525.33,25.93"/>
</g>
<g fill="#0000ff" stroke="none" stroke-linejoin="miter" stroke-width="1">
<g transform="translate(60.23,161.49)">
<path d="m-2.97,5.51l2.97,-2.97l2.97,2.97l2.54,-2.54l-2.97,-2.97l2.97,-2.97l-2.54,-2.54l-2.97,2.97l-2.97,-2.97l-2.54,2.54l2.97,2.97l-2.97,2.97l2.54,2.54" id="p1"/>
</g>
<use xlink:href="#p1" x="126.67" y="140.95"/>
<use xlink:href="#p1" x="259.56" y="92.17"/>
<use xlink:href="#p1" x="525.33" y="25.93"/>
</g>
</g>
<g clip-path="url(#c0)">
<g fill="none" stroke-linecap="butt" stroke-width="0.62">
<path d="M60.23,187.79l0,-180.7"/>
<path d="M60.23,187.79l3.75,0M60.23,174.88l3.75,0M60.23,161.97l3.75,0M60.23,149.07l3.75,0M60.23,136.16l3.75,0M60.23,123.25l3.75,0M60.23,110.34l3.75,0M60.23,97.44l3.75,0M60.23,84.53l3.75,0M60.23,71.62l3.75,0M60.23,58.71l3.75,0M60.23,45.8l3.75,0M60.23,32.9l3.75,0M60.23,19.99l3.75,0M60.23,7.08l3.75,0"/>
<path d="M60.23,187.79l7.5,0M60.23,161.97l7.5,0M60.23,136.16l7.5,0M60.23,110.34l7.5,0M60.23,84.53l7.5,0M60.23,58.71l7.5,0M60.23,32.9l7.5,0M60.23,7.08l7.5,0"/>
</g>
<g fill="none" stroke-width="1">
<g transform="matrix(0 -1 1 0 35.13 135.74)">
<path d="m10.95,-3.63c0,0.49,-0.11,0.98,-0.34,1.46c-0.23,0.48,-0.55,0.89,-0.96,1.23c-0.45,0.36,-0.98,0.64,-1.59,0.85c-0.6,0.2,-1.33,0.3,-2.19,0.3c-0.91,0,-1.74,-0.08,-2.47,-0.25c-0.73,-0.17,-1.47,-0.42,-2.23,-0.76l0,-2.11l0.11,0c0.64,0.53,1.38,0.94,2.23,1.23c0.84,0.29,1.63,0.43,2.37,0.43c1.04,0,1.86,-0.19,2.44,-0.58c0.58,-0.39,0.87,-0.91,0.87,-1.57c0,-0.56,-0.13,-0.97,-0.41,-1.24c-0.27,-0.26,-0.69,-0.47,-1.26,-0.62c-0.42,-0.11,-0.89,-0.2,-1.38,-0.28c-0.49,-0.07,-1.02,-0.16,-1.58,-0.28c-1.12,-0.23,-1.96,-0.64,-2.5,-1.22c-0.54,-0.57,-0.81,-1.33,-0.81,-2.26c0,-1.06,0.45,-1.93,1.35,-2.61c0.9,-0.68,2.04,-1.02,3.42,-1.02c0.89,0,1.71,0.08,2.46,0.25c0.74,0.17,1.4,0.38,1.98,0.63l0,1.99l-0.11,0c-0.48,-0.41,-1.12,-0.75,-1.9,-1.02c-0.78,-0.27,-1.59,-0.4,-2.42,-0.4c-0.9,0,-1.63,0.18,-2.18,0.56c-0.54,0.37,-0.82,0.86,-0.82,1.45c0,0.52,0.13,0.94,0.41,1.24c0.27,0.3,0.75,0.53,1.44,0.69c0.36,0.07,0.88,0.17,1.55,0.29c0.67,0.11,1.24,0.23,1.7,0.35c0.94,0.25,1.65,0.62,2.13,1.13c0.47,0.5,0.71,1.21,0.71,2.12m11.02,-1.25c0,0.77,-0.11,1.48,-0.33,2.12c-0.22,0.64,-0.53,1.18,-0.93,1.62c-0.37,0.42,-0.81,0.74,-1.32,0.97c-0.5,0.23,-1.04,0.34,-1.61,0.34c-0.49,0,-0.94,-0.05,-1.34,-0.16c-0.4,-0.1,-0.81,-0.27,-1.22,-0.5l0,3.99l-1.6,0l0,-13.06l1.6,0l0,0.99c0.42,-0.35,0.9,-0.65,1.43,-0.9c0.53,-0.24,1.1,-0.36,1.7,-0.36c1.15,0,2.04,0.43,2.68,1.3c0.64,0.86,0.96,2.07,0.96,3.61m-1.65,0.04c0,-1.15,-0.19,-2.01,-0.58,-2.58c-0.39,-0.56,-0.99,-0.85,-1.81,-0.85c-0.46,0,-0.92,0.09,-1.39,0.29c-0.46,0.19,-0.91,0.46,-1.34,0.78l0,5.4c0.45,0.2,0.84,0.34,1.17,0.41c0.32,0.07,0.69,0.11,1.11,0.11c0.89,0,1.59,-0.3,2.09,-0.9c0.5,-0.6,0.75,-1.49,0.75,-2.68m12.14,0.23l-7.03,0c0,0.58,0.08,1.09,0.26,1.53c0.17,0.43,0.41,0.79,0.72,1.07c0.29,0.27,0.64,0.47,1.05,0.61c0.4,0.13,0.85,0.2,1.34,0.2c0.64,0,1.3,-0.12,1.96,-0.38c0.65,-0.25,1.12,-0.51,1.4,-0.76l0.08,0l0,1.75c-0.54,0.22,-1.09,0.41,-1.65,0.57c-0.56,0.15,-1.15,0.23,-1.77,0.23c-1.58,0,-2.81,-0.42,-3.7,-1.28c-0.88,-0.85,-1.33,-2.07,-1.33,-3.65c0,-1.56,0.42,-2.79,1.27,-3.71c0.85,-0.91,1.97,-1.37,3.36,-1.37c1.28,0,2.28,0.37,2.97,1.12c0.69,0.75,1.04,1.82,1.04,3.2l0,0.87m-1.56,-1.23c0,-0.84,-0.21,-1.49,-0.63,-1.95c-0.41,-0.46,-1.05,-0.69,-1.9,-0.69c-0.86,0,-1.54,0.25,-2.05,0.76c-0.5,0.5,-0.79,1.13,-0.86,1.88l5.46,0m11.96,1.23l-7.03,0c0,0.58,0.08,1.09,0.26,1.53c0.17,0.43,0.41,0.79,0.72,1.07c0.29,0.27,0.64,0.47,1.05,0.61c0.4,0.13,0.85,0.2,1.34,0.2c0.64,0,1.3,-0.12,1.96,-0.38c0.65,-0.25,1.12,-0.51,1.4,-0.76l0.08,0l0,1.75c-0.54,0.22,-1.09,0.41,-1.65,0.57c-0.56,0.15,-1.15,0.23,-1.77,0.23c-1.58,0,-2.81,-0.42,-3.7,-1.28c-0.88,-0.85,-1.33,-2.07,-1.33,-3.65c0,-1.56,0.42,-2.79,1.27,-3.71c0.85,-0.91,1.97,-1.37,3.36,-1.37c1.28,0,2.28,0.37,2.97,1.12c0.69,0.75,1.04,1.82,1.04,3.2l0,0.87m-1.56,-1.23c0,-0.84,-0.21,-1.49,-0.63,-1.95c-0.41,-0.46,-1.05,-0.69,-1.9,-0.69c-0.86,0,-1.54,0.25,-2.05,0.76c-0.5,0.5,-0.79,1.13,-0.86,1.88l5.46,0m11.71,5.83l-1.6,0l0,-0.99c-0.46,0.39,-0.94,0.7,-1.44,0.93c-0.5,0.22,-1.04,0.33,-1.63,0.33c-1.13,0,-2.04,-0.43,-2.71,-1.31c-0.66,-0.87,-1,-2.09,-1,-3.64c0,-0.8,0.11,-1.52,0.34,-2.16c0.23,-0.63,0.54,-1.17,0.93,-1.61c0.38,-0.43,0.83,-0.76,1.35,-0.99c0.51,-0.22,1.04,-0.34,1.6,-0.34c0.5,0,0.94,0.05,1.33,0.15c0.38,0.1,0.79,0.26,1.22,0.49l0,-4.13l1.6,0l0,13.29m-1.6,-2.34l0,-5.47c-0.43,-0.19,-0.82,-0.32,-1.16,-0.4c-0.34,-0.07,-0.71,-0.11,-1.11,-0.11c-0.9,0,-1.6,0.31,-2.1,0.93c-0.5,0.62,-0.75,1.51,-0.75,2.66c0,1.13,0.19,1.99,0.58,2.58c0.38,0.58,1,0.88,1.86,0.88c0.45,0,0.91,-0.1,1.38,-0.3c0.46,-0.2,0.9,-0.46,1.3,-0.78m12.67,2.34l-1.6,0l0,-1.05c-0.54,0.42,-1.05,0.75,-1.55,0.98c-0.49,0.22,-1.04,0.34,-1.64,0.34c-1,0,-1.78,-0.3,-2.34,-0.91c-0.55,-0.61,-0.83,-1.51,-0.83,-2.69l0,-6.19l1.6,0l0,5.43c0,0.48,0.02,0.89,0.06,1.24c0.04,0.34,0.14,0.63,0.29,0.88c0.15,0.25,0.35,0.43,0.59,0.54c0.24,0.11,0.6,0.17,1.06,0.17c0.41,0,0.87,-0.1,1.36,-0.32c0.49,-0.21,0.95,-0.49,1.38,-0.82l0,-7.12l1.6,0l0,9.54m11.58,-4.88c0,0.77,-0.11,1.48,-0.33,2.12c-0.22,0.64,-0.53,1.18,-0.93,1.62c-0.37,0.42,-0.81,0.74,-1.32,0.97c-0.5,0.23,-1.04,0.34,-1.61,0.34c-0.49,0,-0.94,-0.05,-1.34,-0.16c-0.4,-0.1,-0.81,-0.27,-1.22,-0.5l0,3.99l-1.6,0l0,-13.06l1.6,0l0,0.99c0.42,-0.35,0.9,-0.65,1.43,-0.9c0.53,-0.24,1.1,-0.36,1.7,-0.36c1.15,0,2.04,0.43,2.68,1.3c0.64,0.86,0.96,2.07,0.96,3.61m-1.65,0.04c0,-1.15,-0.19,-2.01,-0.58,-2.58c-0.39,-0.56,-0.99,-0.85,-1.81,-0.85c-0.46,0,-0.92,0.09,-1.39,0.29c-0.46,0.19,-0.91,0.46,-1.34,0.78l0,5.4c0.45,0.2,0.84,0.34,1.17,0.41c0.32,0.07,0.69,0.11,1.11,0.11c0.89,0,1.59,-0.3,2.09,-0.9c0.5,-0.6,0.75,-1.49,0.75,-2.68" fill="#000000" stroke="none" fill-opacity="1"/>
</g>
<path d="m55.6,188.07c0,2.28,-0.35,3.96,-1.07,5.02c-0.71,1.06,-1.82,1.6,-3.32,1.6c-1.52,0,-2.64,-0.54,-3.34,-1.62c-0.7,-1.08,-1.05,-2.74,-1.05,-4.99c0,-2.26,0.35,-3.93,1.06,-5.01c0.71,-1.07,1.82,-1.61,3.33,-1.61c1.52,0,2.64,0.54,3.34,1.64c0.7,1.09,1.05,2.75,1.05,4.96m-2.24,3.87c0.19,-0.46,0.33,-1,0.4,-1.62c0.07,-0.62,0.1,-1.37,0.1,-2.25c0,-0.86,-0.03,-1.61,-0.1,-2.25c-0.07,-0.63,-0.2,-1.17,-0.41,-1.62c-0.19,-0.43,-0.47,-0.76,-0.81,-0.99c-0.34,-0.22,-0.78,-0.33,-1.32,-0.33c-0.53,0,-0.97,0.11,-1.32,0.33c-0.35,0.22,-0.62,0.55,-0.83,1c-0.19,0.42,-0.32,0.97,-0.39,1.64c-0.07,0.67,-0.1,1.42,-0.1,2.23c0,0.88,0.03,1.63,0.09,2.23c0.06,0.59,0.19,1.13,0.4,1.6c0.18,0.44,0.45,0.78,0.79,1.01c0.34,0.23,0.8,0.35,1.37,0.35c0.53,0,0.97,-0.11,1.33,-0.33c0.35,-0.22,0.62,-0.55,0.82,-1" fill="#000000" stroke="none" fill-opacity="1"/>
<path d="m54.89,168.62l-6.88,0l0,-1.29l2.64,0l0,-8.52l-2.64,0l0,-1.16c0.35,0,0.74,-0.02,1.15,-0.08c0.41,-0.05,0.72,-0.14,0.93,-0.26c0.26,-0.14,0.46,-0.32,0.61,-0.54c0.15,-0.21,0.23,-0.51,0.26,-0.88l1.32,0l0,11.46l2.59,0l0,1.29" fill="#000000" stroke="none" fill-opacity="1"/>
<path d="m55.62,142.81l-8.61,0l0,-1.78c0.59,-0.51,1.19,-1.02,1.79,-1.53c0.6,-0.51,1.16,-1.02,1.67,-1.52c1.09,-1.05,1.84,-1.9,2.24,-2.52c0.4,-0.62,0.6,-1.29,0.6,-2.02c0,-0.66,-0.21,-1.17,-0.65,-1.55c-0.43,-0.37,-1.04,-0.55,-1.82,-0.55c-0.51,0,-1.07,0.09,-1.68,0.27c-0.6,0.18,-1.19,0.46,-1.76,0.83l-0.08,0l0,-1.79c0.4,-0.19,0.94,-0.38,1.61,-0.54c0.67,-0.16,1.32,-0.24,1.96,-0.24c1.3,0,2.32,0.31,3.06,0.94c0.74,0.62,1.11,1.48,1.11,2.55c0,0.48,-0.06,0.93,-0.18,1.35c-0.12,0.41,-0.3,0.81,-0.54,1.19c-0.22,0.35,-0.48,0.7,-0.78,1.04c-0.29,0.34,-0.66,0.72,-1.08,1.13c-0.6,0.59,-1.23,1.17,-1.88,1.73c-0.64,0.56,-1.25,1.08,-1.82,1.55l6.84,0l0,1.46" fill="#000000" stroke="none" fill-opacity="1"/>
<path d="m54.5,110.87c0.27,0.24,0.49,0.55,0.67,0.92c0.17,0.37,0.26,0.84,0.26,1.43c0,0.58,-0.1,1.11,-0.31,1.59c-0.21,0.48,-0.5,0.9,-0.88,1.26c-0.42,0.39,-0.93,0.69,-1.5,0.88c-0.57,0.19,-1.21,0.28,-1.9,0.28c-0.7,0,-1.4,-0.08,-2.08,-0.25c-0.68,-0.16,-1.24,-0.35,-1.68,-0.55l0,-1.78l0.12,0c0.48,0.31,1.05,0.58,1.7,0.79c0.65,0.21,1.28,0.31,1.89,0.31c0.35,0,0.74,-0.05,1.14,-0.17c0.4,-0.11,0.73,-0.29,0.98,-0.52c0.26,-0.25,0.45,-0.52,0.58,-0.82c0.12,-0.3,0.19,-0.68,0.19,-1.14c0,-0.45,-0.07,-0.83,-0.21,-1.13c-0.14,-0.29,-0.34,-0.53,-0.6,-0.7c-0.25,-0.17,-0.56,-0.29,-0.93,-0.36c-0.36,-0.06,-0.75,-0.09,-1.17,-0.09l-0.76,0l0,-1.41l0.59,0c0.86,0,1.55,-0.18,2.07,-0.54c0.51,-0.36,0.77,-0.89,0.77,-1.58c0,-0.3,-0.06,-0.57,-0.19,-0.8c-0.13,-0.23,-0.31,-0.42,-0.54,-0.56c-0.24,-0.14,-0.5,-0.25,-0.78,-0.3c-0.27,-0.05,-0.59,-0.08,-0.94,-0.08c-0.54,0,-1.11,0.09,-1.72,0.29c-0.6,0.19,-1.18,0.46,-1.72,0.82l-0.08,0l0,-1.78c0.4,-0.19,0.94,-0.38,1.61,-0.55c0.67,-0.16,1.32,-0.25,1.96,-0.25c0.62,0,1.16,0.05,1.64,0.17c0.47,0.11,0.9,0.29,1.28,0.54c0.41,0.27,0.72,0.6,0.93,0.99c0.21,0.38,0.31,0.84,0.31,1.35c0,0.7,-0.24,1.32,-0.74,1.85c-0.49,0.52,-1.08,0.85,-1.76,0.99l0,0.11c0.27,0.04,0.58,0.14,0.93,0.28c0.35,0.14,0.65,0.32,0.89,0.54" fill="#000000" stroke="none" fill-opacity="1"/>
<path d="m55.91,87.6l-1.88,0l0,3.58l-1.64,0l0,-3.58l-6.09,0l0,-1.96l6.16,-7.17l1.57,0l0,7.77l1.88,0l0,1.36m-3.52,-1.36l0,-5.74l-4.93,5.74l4.93,0" fill="#000000" stroke="none" fill-opacity="1"/>
<path d="m55.52,61.32c0,0.59,-0.1,1.15,-0.32,1.7c-0.21,0.54,-0.51,0.99,-0.88,1.36c-0.41,0.39,-0.89,0.7,-1.46,0.91c-0.56,0.21,-1.22,0.32,-1.96,0.32c-0.69,0,-1.36,-0.07,-2,-0.21c-0.64,-0.14,-1.18,-0.32,-1.63,-0.52l0,-1.8l0.11,0c0.46,0.29,1.01,0.54,1.64,0.75c0.62,0.2,1.24,0.31,1.84,0.31c0.4,0,0.79,-0.05,1.17,-0.17c0.37,-0.11,0.71,-0.31,1.01,-0.59c0.25,-0.24,0.44,-0.53,0.56,-0.88c0.12,-0.34,0.19,-0.73,0.19,-1.18c0,-0.43,-0.07,-0.8,-0.22,-1.11c-0.15,-0.3,-0.36,-0.54,-0.62,-0.72c-0.29,-0.21,-0.65,-0.36,-1.08,-0.45c-0.42,-0.08,-0.89,-0.13,-1.42,-0.13c-0.5,0,-0.98,0.03,-1.44,0.1c-0.46,0.06,-0.86,0.13,-1.2,0.2l0,-6.55l7.65,0l0,1.49l-6,0l0,3.38c0.24,-0.02,0.49,-0.03,0.75,-0.05c0.25,-0.01,0.47,-0.01,0.66,-0.01c0.68,0,1.29,0.05,1.81,0.17c0.51,0.11,0.99,0.32,1.42,0.61c0.45,0.31,0.8,0.71,1.05,1.21c0.25,0.49,0.37,1.11,0.37,1.86" fill="#000000" stroke="none" fill-opacity="1"/>
<path d="m55.81,35.42c0,1.29,-0.42,2.34,-1.27,3.16c-0.85,0.81,-1.89,1.22,-3.13,1.22c-0.62,0,-1.19,-0.09,-1.7,-0.29c-0.51,-0.19,-0.96,-0.48,-1.35,-0.86c-0.48,-0.47,-0.86,-1.09,-1.13,-1.87c-0.26,-0.78,-0.39,-1.72,-0.39,-2.81c0,-1.12,0.12,-2.12,0.36,-2.99c0.24,-0.87,0.62,-1.64,1.15,-2.32c0.5,-0.64,1.14,-1.14,1.93,-1.5c0.79,-0.36,1.71,-0.54,2.76,-0.54c0.33,0,0.61,0.01,0.84,0.04c0.22,0.02,0.45,0.07,0.69,0.15l0,1.63l-0.08,0c-0.15,-0.08,-0.4,-0.16,-0.72,-0.24c-0.32,-0.07,-0.65,-0.11,-0.98,-0.11c-1.22,0,-2.2,0.38,-2.93,1.14c-0.72,0.76,-1.15,1.8,-1.27,3.1c0.47,-0.29,0.94,-0.51,1.41,-0.66c0.46,-0.15,1,-0.22,1.61,-0.22c0.54,0,1.01,0.04,1.43,0.14c0.41,0.09,0.83,0.3,1.26,0.6c0.5,0.34,0.87,0.78,1.13,1.31c0.25,0.52,0.38,1.17,0.38,1.93m-1.73,0.06c0,-0.52,-0.07,-0.96,-0.23,-1.31c-0.15,-0.34,-0.41,-0.64,-0.77,-0.9c-0.26,-0.18,-0.55,-0.3,-0.87,-0.35c-0.31,-0.05,-0.65,-0.08,-0.99,-0.08c-0.48,0,-0.93,0.05,-1.35,0.17c-0.41,0.11,-0.84,0.29,-1.28,0.52c-0.01,0.12,-0.01,0.24,-0.02,0.36c0,0.11,0,0.26,0,0.44c0,0.9,0.09,1.61,0.27,2.13c0.18,0.52,0.44,0.93,0.76,1.23c0.26,0.25,0.54,0.43,0.85,0.55c0.3,0.11,0.63,0.17,0.99,0.17c0.82,0,1.47,-0.25,1.94,-0.75c0.47,-0.5,0.7,-1.22,0.7,-2.17" fill="#000000" stroke="none" fill-opacity="1"/>
<path d="m55.65,6.72l-5.75,10.81l-1.82,0l6.12,-11.22l-7.24,0l0,-1.49l8.7,0l0,1.9" fill="#000000" stroke="none" fill-opacity="1"/>
</g>
<g fill="none" stroke-linecap="butt" stroke-width="0.62">
<path d="M60.23,187.79l465.09,0"/>
<path d="M60.23,187.79l0,-3.75M93.45,187.79l0,-3.75M126.67,187.79l0,-3.75M159.89,187.79l0,-3.75M193.12,187.79l0,-3.75M226.34,187.79l0,-3.75M259.56,187.79l0,-3.75M292.78,187.79l0,-3.75M326,187.79l0,-3.75M359.22,187.79l0,-3.75M392.44,187.79l0,-3.75M425.66,187.79l0,-3.75M458.88,187.79l0,-3.75M492.1,187.79l0,-3.75M525.33,187.79l0,-3.75"/>
<path d="M60.23,187.79l0,-7.5M126.67,187.79l0,-7.5M259.56,187.79l0,-7.5M525.33,187.79l0,-7.5"/>
</g>
<g fill="none" stroke-width="1">
<path d="m268.41,222.27l-4.54,0l0,11.21l-1.69,0l0,-11.21l-4.54,0l0,-1.5l10.78,0l0,1.5m9.57,11.21l-1.6,0l0,-5.43c0,-0.43,-0.02,-0.85,-0.07,-1.23c-0.05,-0.38,-0.14,-0.68,-0.28,-0.9c-0.14,-0.23,-0.34,-0.41,-0.61,-0.53c-0.26,-0.11,-0.61,-0.17,-1.04,-0.17c-0.43,0,-0.89,0.1,-1.37,0.32c-0.47,0.21,-0.93,0.49,-1.37,0.82l0,7.12l-1.6,0l0,-13.29l1.6,0l0,4.81c0.5,-0.41,1.01,-0.74,1.55,-0.97c0.53,-0.23,1.08,-0.35,1.64,-0.35c1.03,0,1.81,0.31,2.35,0.93c0.54,0.62,0.81,1.51,0.81,2.68l0,6.19m9.07,-7.79l-0.08,0c-0.23,-0.05,-0.47,-0.09,-0.69,-0.12c-0.22,-0.02,-0.49,-0.03,-0.79,-0.03c-0.49,0,-0.97,0.1,-1.43,0.32c-0.46,0.21,-0.9,0.5,-1.33,0.85l0,6.77l-1.6,0l0,-9.54l1.6,0l0,1.4c0.63,-0.51,1.2,-0.87,1.68,-1.08c0.48,-0.21,0.98,-0.32,1.49,-0.32c0.27,0,0.48,0,0.6,0.02c0.12,0.01,0.31,0.04,0.56,0.08l0,1.64m9.53,3.18l-7.03,0c0,0.58,0.08,1.09,0.26,1.53c0.17,0.43,0.41,0.79,0.72,1.07c0.29,0.27,0.64,0.47,1.05,0.61c0.4,0.13,0.85,0.2,1.34,0.2c0.64,0,1.3,-0.12,1.96,-0.38c0.65,-0.25,1.12,-0.51,1.4,-0.76l0.08,0l0,1.75c-0.54,0.22,-1.09,0.41,-1.65,0.57c-0.56,0.15,-1.15,0.23,-1.77,0.23c-1.58,0,-2.81,-0.42,-3.7,-1.28c-0.88,-0.85,-1.33,-2.07,-1.33,-3.65c0,-1.56,0.42,-2.79,1.27,-3.71c0.85,-0.91,1.97,-1.37,3.36,-1.37c1.28,0,2.28,0.37,2.97,1.12c0.69,0.75,1.04,1.82,1.04,3.2l0,0.87m-1.56,-1.23c0,-0.84,-0.21,-1.49,-0.63,-1.95c-0.41,-0.46,-1.05,-0.69,-1.9,-0.69c-0.86,0,-1.54,0.25,-2.05,0.76c-0.5,0.5,-0.79,1.13,-0.86,1.88l5.46,0m11.39,5.83l-1.59,0l0,-1.01c-0.14,0.09,-0.33,0.23,-0.57,0.4c-0.24,0.17,-0.47,0.31,-0.7,0.41c-0.26,0.13,-0.57,0.24,-0.92,0.32c-0.34,0.08,-0.75,0.13,-1.22,0.13c-0.86,0,-1.58,-0.28,-2.18,-0.85c-0.59,-0.56,-0.89,-1.29,-0.89,-2.17c0,-0.72,0.15,-1.3,0.46,-1.75c0.31,-0.44,0.75,-0.79,1.32,-1.05c0.58,-0.25,1.27,-0.43,2.09,-0.52c0.81,-0.09,1.68,-0.15,2.62,-0.2l0,-0.24c0,-0.36,-0.06,-0.66,-0.19,-0.9c-0.12,-0.23,-0.31,-0.42,-0.55,-0.56c-0.22,-0.13,-0.5,-0.21,-0.82,-0.26c-0.31,-0.04,-0.65,-0.06,-0.99,-0.06c-0.42,0,-0.89,0.05,-1.4,0.16c-0.51,0.11,-1.05,0.27,-1.6,0.48l-0.08,0l0,-1.63c0.31,-0.08,0.76,-0.17,1.35,-0.28c0.59,-0.1,1.17,-0.15,1.75,-0.15c0.67,0,1.25,0.05,1.75,0.16c0.49,0.11,0.93,0.3,1.29,0.56c0.35,0.26,0.63,0.6,0.82,1.01c0.18,0.41,0.28,0.93,0.28,1.54l0,6.47m-1.59,-2.34l0,-2.65c-0.48,0.02,-1.06,0.07,-1.73,0.12c-0.66,0.05,-1.18,0.13,-1.57,0.24c-0.46,0.13,-0.83,0.33,-1.11,0.61c-0.28,0.27,-0.42,0.65,-0.42,1.14c0,0.54,0.16,0.95,0.49,1.23c0.33,0.27,0.83,0.41,1.51,0.41c0.56,0,1.07,-0.1,1.54,-0.32c0.46,-0.21,0.9,-0.48,1.29,-0.79m12.42,2.34l-1.6,0l0,-0.99c-0.46,0.39,-0.94,0.7,-1.44,0.93c-0.5,0.22,-1.04,0.33,-1.63,0.33c-1.13,0,-2.04,-0.43,-2.71,-1.31c-0.66,-0.87,-1,-2.09,-1,-3.64c0,-0.8,0.11,-1.52,0.34,-2.16c0.23,-0.63,0.54,-1.17,0.93,-1.61c0.38,-0.43,0.83,-0.76,1.35,-0.99c0.51,-0.22,1.04,-0.34,1.6,-0.34c0.5,0,0.94,0.05,1.33,0.15c0.38,0.1,0.79,0.26,1.22,0.49l0,-4.13l1.6,0l0,13.29m-1.6,-2.34l0,-5.47c-0.43,-0.19,-0.82,-0.32,-1.16,-0.4c-0.34,-0.07,-0.71,-0.11,-1.11,-0.11c-0.9,0,-1.6,0.31,-2.1,0.93c-0.5,0.62,-0.75,1.51,-0.75,2.66c0,1.13,0.19,1.99,0.58,2.58c0.38,0.58,1,0.88,1.86,0.88c0.45,0,0.91,-0.1,1.38,-0.3c0.46,-0.2,0.9,-0.46,1.3,-0.78m11.58,-0.4c0,0.87,-0.36,1.58,-1.08,2.14c-0.72,0.55,-1.7,0.83,-2.95,0.83c-0.7,0,-1.35,-0.08,-1.94,-0.25c-0.58,-0.16,-1.08,-0.35,-1.48,-0.55l0,-1.8l0.08,0c0.5,0.38,1.07,0.68,1.69,0.91c0.62,0.22,1.21,0.33,1.78,0.33c0.7,0,1.25,-0.11,1.65,-0.34c0.39,-0.22,0.59,-0.58,0.59,-1.07c0,-0.37,-0.1,-0.66,-0.32,-0.85c-0.21,-0.19,-0.63,-0.35,-1.24,-0.49c-0.22,-0.05,-0.52,-0.11,-0.89,-0.17c-0.36,-0.06,-0.7,-0.14,-1,-0.22c-0.83,-0.22,-1.43,-0.54,-1.78,-0.97c-0.35,-0.43,-0.52,-0.95,-0.52,-1.58c0,-0.39,0.08,-0.76,0.24,-1.11c0.16,-0.34,0.4,-0.65,0.73,-0.93c0.31,-0.26,0.72,-0.47,1.21,-0.63c0.49,-0.15,1.04,-0.23,1.65,-0.23c0.56,0,1.14,0.06,1.73,0.2c0.58,0.13,1.06,0.3,1.45,0.5l0,1.71l-0.08,0c-0.41,-0.3,-0.9,-0.55,-1.49,-0.76c-0.58,-0.2,-1.16,-0.31,-1.72,-0.31c-0.58,0,-1.08,0.11,-1.48,0.33c-0.4,0.22,-0.6,0.55,-0.6,1c0,0.39,0.12,0.68,0.36,0.88c0.23,0.19,0.62,0.36,1.16,0.48c0.29,0.06,0.62,0.13,0.99,0.2c0.36,0.06,0.67,0.13,0.91,0.18c0.74,0.17,1.32,0.46,1.72,0.88c0.4,0.42,0.6,0.97,0.6,1.67" fill="#000000" stroke="none" fill-opacity="1"/>
<path d="m63.94,208.89l-6.88,0l0,-1.29l2.64,0l0,-8.52l-2.64,0l0,-1.16c0.35,0,0.74,-0.02,1.15,-0.08c0.41,-0.05,0.72,-0.14,0.93,-0.26c0.26,-0.14,0.46,-0.32,0.61,-0.54c0.15,-0.21,0.23,-0.51,0.26,-0.88l1.32,0l0,11.46l2.59,0l0,1.29" fill="#000000" stroke="none" fill-opacity="1"/>
<path d="m131.11,208.89l-8.61,0l0,-1.78c0.59,-0.51,1.19,-1.02,1.79,-1.53c0.6,-0.51,1.16,-1.02,1.67,-1.52c1.09,-1.05,1.84,-1.9,2.24,-2.52c0.4,-0.62,0.6,-1.29,0.6,-2.02c0,-0.66,-0.21,-1.17,-0.65,-1.55c-0.43,-0.37,-1.04,-0.55,-1.82,-0.55c-0.51,0,-1.07,0.09,-1.68,0.27c-0.6,0.18,-1.19,0.46,-1.76,0.83l-0.08,0l0,-1.79c0.4,-0.19,0.94,-0.38,1.61,-0.54c0.67,-0.16,1.32,-0.24,1.96,-0.24c1.3,0,2.32,0.31,3.06,0.94c0.74,0.62,1.11,1.48,1.11,2.55c0,0.48,-0.06,0.93,-0.18,1.35c-0.12,0.41,-0.3,0.81,-0.54,1.19c-0.22,0.35,-0.48,0.7,-0.78,1.04c-0.29,0.34,-0.66,0.72,-1.08,1.13c-0.6,0.59,-1.23,1.17,-1.88,1.73c-0.64,0.56,-1.25,1.08,-1.82,1.55l6.84,0l0,1.46" fill="#000000" stroke="none" fill-opacity="1"/>
<path d="m264.29,205.31l-1.88,0l0,3.58l-1.64,0l0,-3.58l-6.09,0l0,-1.96l6.16,-7.17l1.57,0l0,7.77l1.88,0l0,1.36m-3.52,-1.36l0,-5.74l-4.93,5.74l4.93,0" fill="#000000" stroke="none" fill-opacity="1"/>
<path d="m529.86,205.34c0,1.09,-0.42,2.01,-1.28,2.74c-0.85,0.72,-1.93,1.09,-3.23,1.09c-1.37,0,-2.47,-0.35,-3.29,-1.06c-0.81,-0.71,-1.22,-1.62,-1.22,-2.73c0,-0.7,0.2,-1.34,0.61,-1.91c0.41,-0.57,0.98,-1.02,1.73,-1.36l0,-0.05c-0.68,-0.36,-1.18,-0.76,-1.51,-1.19c-0.32,-0.43,-0.49,-0.97,-0.49,-1.62c0,-0.95,0.39,-1.75,1.17,-2.39c0.78,-0.63,1.78,-0.95,2.99,-0.95c1.27,0,2.28,0.3,3.04,0.91c0.75,0.6,1.13,1.38,1.13,2.32c0,0.57,-0.17,1.14,-0.53,1.69c-0.35,0.55,-0.88,0.98,-1.58,1.3l0,0.05c0.79,0.34,1.4,0.76,1.82,1.26c0.42,0.5,0.63,1.13,0.63,1.91m-2.02,-6.21c0,-0.6,-0.23,-1.09,-0.7,-1.45c-0.47,-0.36,-1.06,-0.54,-1.79,-0.54c-0.71,0,-1.3,0.17,-1.76,0.51c-0.45,0.34,-0.68,0.8,-0.68,1.38c0,0.41,0.11,0.76,0.34,1.06c0.23,0.29,0.57,0.56,1.04,0.79c0.21,0.1,0.51,0.23,0.91,0.4c0.39,0.16,0.78,0.3,1.15,0.41c0.56,-0.37,0.95,-0.76,1.17,-1.17c0.21,-0.4,0.32,-0.87,0.32,-1.4m0.26,6.37c0,-0.52,-0.11,-0.94,-0.34,-1.26c-0.23,-0.31,-0.68,-0.63,-1.35,-0.95c-0.26,-0.12,-0.56,-0.24,-0.88,-0.35c-0.31,-0.1,-0.74,-0.25,-1.27,-0.45c-0.51,0.27,-0.92,0.65,-1.23,1.13c-0.31,0.47,-0.46,1.01,-0.46,1.62c0,0.76,0.26,1.4,0.79,1.9c0.52,0.5,1.2,0.75,2.01,0.75c0.83,0,1.49,-0.21,1.99,-0.64c0.49,-0.42,0.74,-1.01,0.74,-1.76" fill="#000000" stroke="none" fill-opacity="1"/>
</g>
<g fill="none" stroke-linecap="butt" stroke-width="0.62">
<path d="M525.33,187.79l0,-180.7"/>
<path d="M525.33,187.79l-3.75,0M525.33,174.88l-3.75,0M525.33,161.97l-3.75,0M525.33,149.07l-3.75,0M525.33,136.16l-3.75,0M525.33,123.25l-3.75,0M525.33,110.34l-3.75,0M525.33,97.44l-3.75,0M525.33,84.53l-3.75,0M525.33,71.62l-3.75,0M525.33,58.71l-3.75,0M525.33,45.8l-3.75,0M525.33,32.9l-3.75,0M525.33,19.99l-3.75,0M525.33,7.08l-3.75,0"/>
<path d="M525.33,187.79l-7.5,0M525.33,161.97l-7.5,0M525.33,136.16l-7.5,0M525.33,110.34l-7.5,0M525.33,84.53l-7.5,0M525.33,58.71l-7.5,0M525.33,32.9l-7.5,0M525.33,7.08l-7.5,0"/>
<path d="M60.23,7.08l465.09,0"/>
<path d="M60.23,7.08l0,3.75M93.45,7.08l0,3.75M126.67,7.08l0,3.75M159.89,7.08l0,3.75M193.12,7.08l0,3.75M226.34,7.08l0,3.75M259.56,7.08l0,3.75M292.78,7.08l0,3.75M326,7.08l0,3.75M359.22,7.08l0,3.75M392.44,7.08l0,3.75M425.66,7.08l0,3.75M458.88,7.08l0,3.75M492.1,7.08l0,3.75M525.33,7.08l0,3.75"/>
<path d="M60.23,7.08l0,7.5M126.67,7.08l0,7.5M259.56,7.08l0,7.5M525.33,7.08l0,7.5"/>
</g>
</g>
</g>
</svg>
