<?xml version="1.0" encoding="utf-8"?>
<!-- Generator: Adobe Illustrator 16.0.0, SVG Export Plug-In . SVG Version: 6.00 Build 0)  -->
<!DOCTYPE svg PUBLIC "-//W3C//DTD SVG 1.1//EN" "http://www.w3.org/Graphics/SVG/1.1/DTD/svg11.dtd">
<svg version="1.1" id="Layer_1" xmlns="http://www.w3.org/2000/svg" xmlns:xlink="http://www.w3.org/1999/xlink" x="0px" y="0px"
	  viewBox="0 0 576 432" enable-background="new 0 0 576 432" xml:space="preserve">
<g>
	<defs>
		<rect id="SVGID_1_" x="72" y="43.2" width="446.4" height="345.6"/>
	</defs>
	<clipPath id="SVGID_2_">
		<use xlink:href="#SVGID_1_"  overflow="visible"/>
	</clipPath>
	
		<polyline clip-path="url(#SVGID_2_)" fill="none" stroke="#000000" stroke-width="2" stroke-linejoin="round" stroke-miterlimit="10" stroke-dasharray="6,6" points="
		99.9,387.95 127.8,345.793 183.6,348.757 295.2,334.215 518.4,213.832 	"/>
	<g clip-path="url(#SVGID_2_)">
		<defs>
			<rect id="SVGID_3_" x="93.65" y="381.7" width="12.5" height="12.5"/>
		</defs>
		<clipPath id="SVGID_4_">
			<use xlink:href="#SVGID_3_"  overflow="visible"/>
		</clipPath>
		<path clip-path="url(#SVGID_4_)" d="M99.9,393.95c1.591,0,3.118-0.632,4.243-1.757s1.757-2.651,1.757-4.243
			c0-1.591-0.632-3.117-1.757-4.242s-2.651-1.758-4.243-1.758s-3.117,0.633-4.243,1.758c-1.125,1.125-1.757,2.651-1.757,4.242
			c0,1.592,0.632,3.118,1.757,4.243C96.783,393.318,98.309,393.95,99.9,393.95z"/>
		
			<path clip-path="url(#SVGID_4_)" fill="none" stroke="#000000" stroke-width="0.5" stroke-linejoin="round" stroke-miterlimit="10" d="
			M99.9,393.95c1.591,0,3.118-0.632,4.243-1.757s1.757-2.651,1.757-4.243c0-1.591-0.632-3.117-1.757-4.242s-2.651-1.758-4.243-1.758
			s-3.117,0.633-4.243,1.758c-1.125,1.125-1.757,2.651-1.757,4.242c0,1.592,0.632,3.118,1.757,4.243
			C96.783,393.318,98.309,393.95,99.9,393.95z"/>
	</g>
	<g clip-path="url(#SVGID_2_)">
		<defs>
			<rect id="SVGID_5_" x="121.55" y="339.543" width="12.5" height="12.5"/>
		</defs>
		<clipPath id="SVGID_6_">
			<use xlink:href="#SVGID_5_"  overflow="visible"/>
		</clipPath>
		<path clip-path="url(#SVGID_6_)" d="M127.8,351.793c1.591,0,3.118-0.633,4.243-1.758c1.125-1.125,1.757-2.651,1.757-4.242
			c0-1.592-0.632-3.118-1.757-4.243c-1.125-1.125-2.651-1.757-4.243-1.757c-1.591,0-3.117,0.632-4.243,1.757
			c-1.125,1.125-1.757,2.651-1.757,4.243c0,1.591,0.632,3.117,1.757,4.242C124.683,351.16,126.209,351.793,127.8,351.793z"/>
		
			<path clip-path="url(#SVGID_6_)" fill="none" stroke="#000000" stroke-width="0.5" stroke-linejoin="round" stroke-miterlimit="10" d="
			M127.8,351.793c1.591,0,3.118-0.633,4.243-1.758c1.125-1.125,1.757-2.651,1.757-4.242c0-1.592-0.632-3.118-1.757-4.243
			c-1.125-1.125-2.651-1.757-4.243-1.757c-1.591,0-3.117,0.632-4.243,1.757c-1.125,1.125-1.757,2.651-1.757,4.243
			c0,1.591,0.632,3.117,1.757,4.242C124.683,351.16,126.209,351.793,127.8,351.793z"/>
	</g>
	<g clip-path="url(#SVGID_2_)">
		<defs>
			<rect id="SVGID_7_" x="177.35" y="342.507" width="12.5" height="12.5"/>
		</defs>
		<clipPath id="SVGID_8_">
			<use xlink:href="#SVGID_7_"  overflow="visible"/>
		</clipPath>
		<path clip-path="url(#SVGID_8_)" d="M183.6,354.757c1.591,0,3.117-0.632,4.243-1.757c1.125-1.126,1.757-2.652,1.757-4.243
			s-0.632-3.117-1.757-4.242c-1.125-1.126-2.651-1.758-4.243-1.758s-3.118,0.632-4.243,1.758c-1.125,1.125-1.757,2.651-1.757,4.242
			s0.632,3.117,1.757,4.243C180.482,354.125,182.009,354.757,183.6,354.757z"/>
		
			<path clip-path="url(#SVGID_8_)" fill="none" stroke="#000000" stroke-width="0.5" stroke-linejoin="round" stroke-miterlimit="10" d="
			M183.6,354.757c1.591,0,3.117-0.632,4.243-1.757c1.125-1.126,1.757-2.652,1.757-4.243s-0.632-3.117-1.757-4.242
			c-1.125-1.126-2.651-1.758-4.243-1.758s-3.118,0.632-4.243,1.758c-1.125,1.125-1.757,2.651-1.757,4.242s0.632,3.117,1.757,4.243
			C180.482,354.125,182.009,354.757,183.6,354.757z"/>
	</g>
	<g clip-path="url(#SVGID_2_)">
		<defs>
			<rect id="SVGID_9_" x="288.95" y="327.965" width="12.5" height="12.5"/>
		</defs>
		<clipPath id="SVGID_10_">
			<use xlink:href="#SVGID_9_"  overflow="visible"/>
		</clipPath>
		<path clip-path="url(#SVGID_10_)" d="M295.2,340.215c1.591,0,3.117-0.632,4.242-1.757s1.758-2.651,1.758-4.243
			c0-1.591-0.633-3.117-1.758-4.242s-2.651-1.758-4.242-1.758c-1.592,0-3.118,0.633-4.243,1.758s-1.757,2.651-1.757,4.242
			c0,1.592,0.632,3.118,1.757,4.243S293.608,340.215,295.2,340.215z"/>
		
			<path clip-path="url(#SVGID_10_)" fill="none" stroke="#000000" stroke-width="0.5" stroke-linejoin="round" stroke-miterlimit="10" d="
			M295.2,340.215c1.591,0,3.117-0.632,4.242-1.757s1.758-2.651,1.758-4.243c0-1.591-0.633-3.117-1.758-4.242
			s-2.651-1.758-4.242-1.758c-1.592,0-3.118,0.633-4.243,1.758s-1.757,2.651-1.757,4.242c0,1.592,0.632,3.118,1.757,4.243
			S293.608,340.215,295.2,340.215z"/>
	</g>
	<g clip-path="url(#SVGID_2_)">
		<defs>
			<rect id="SVGID_11_" x="512.15" y="207.582" width="12.5" height="12.5"/>
		</defs>
		<clipPath id="SVGID_12_">
			<use xlink:href="#SVGID_11_"  overflow="visible"/>
		</clipPath>
		<path clip-path="url(#SVGID_12_)" d="M518.4,219.832c1.591,0,3.117-0.632,4.242-1.758c1.125-1.125,1.758-2.651,1.758-4.242
			s-0.633-3.118-1.758-4.243s-2.651-1.757-4.242-1.757c-1.592,0-3.118,0.632-4.243,1.757s-1.757,2.651-1.757,4.243
			s0.632,3.117,1.757,4.242C515.282,219.2,516.809,219.832,518.4,219.832z"/>
		
			<path clip-path="url(#SVGID_12_)" fill="none" stroke="#000000" stroke-width="0.5" stroke-linejoin="round" stroke-miterlimit="10" d="
			M518.4,219.832c1.591,0,3.117-0.632,4.242-1.758c1.125-1.125,1.758-2.651,1.758-4.242s-0.633-3.118-1.758-4.243
			s-2.651-1.757-4.242-1.757c-1.592,0-3.118,0.632-4.243,1.757s-1.757,2.651-1.757,4.243s0.632,3.117,1.757,4.242
			C515.282,219.2,516.809,219.832,518.4,219.832z"/>
	</g>
</g>
<g>
	<defs>
		<rect id="SVGID_13_" x="72" y="43.2" width="446.4" height="345.6"/>
	</defs>
	<clipPath id="SVGID_14_">
		<use xlink:href="#SVGID_13_"  overflow="visible"/>
	</clipPath>
	
		<polyline clip-path="url(#SVGID_14_)" fill="none" stroke="#000000" stroke-width="2" stroke-linecap="square" stroke-linejoin="round" stroke-miterlimit="10" points="
		99.9,387.684 127.8,343.204 183.6,348.626 295.2,334.359 518.4,210.96 	"/>
	<g clip-path="url(#SVGID_14_)">
		<defs>
			<rect id="SVGID_15_" x="93.65" y="381.434" width="12.5" height="12.5"/>
		</defs>
		<clipPath id="SVGID_16_">
			<use xlink:href="#SVGID_15_"  overflow="visible"/>
		</clipPath>
		<path clip-path="url(#SVGID_16_)" d="M99.9,393.684c1.591,0,3.118-0.632,4.243-1.757c1.125-1.126,1.757-2.651,1.757-4.243
			c0-1.591-0.632-3.117-1.757-4.242s-2.651-1.758-4.243-1.758s-3.117,0.633-4.243,1.758c-1.125,1.125-1.757,2.651-1.757,4.242
			c0,1.592,0.632,3.117,1.757,4.243C96.783,393.052,98.309,393.684,99.9,393.684z"/>
		
			<path clip-path="url(#SVGID_16_)" fill="none" stroke="#000000" stroke-width="0.5" stroke-linejoin="round" stroke-miterlimit="10" d="
			M99.9,393.684c1.591,0,3.118-0.632,4.243-1.757c1.125-1.126,1.757-2.651,1.757-4.243c0-1.591-0.632-3.117-1.757-4.242
			s-2.651-1.758-4.243-1.758s-3.117,0.633-4.243,1.758c-1.125,1.125-1.757,2.651-1.757,4.242c0,1.592,0.632,3.117,1.757,4.243
			C96.783,393.052,98.309,393.684,99.9,393.684z"/>
	</g>
	<g clip-path="url(#SVGID_14_)">
		<defs>
			<rect id="SVGID_17_" x="121.55" y="336.954" width="12.5" height="12.5"/>
		</defs>
		<clipPath id="SVGID_18_">
			<use xlink:href="#SVGID_17_"  overflow="visible"/>
		</clipPath>
		<path clip-path="url(#SVGID_18_)" d="M127.8,349.204c1.591,0,3.118-0.633,4.243-1.758c1.125-1.125,1.757-2.651,1.757-4.242
			c0-1.592-0.632-3.117-1.757-4.243c-1.125-1.125-2.651-1.757-4.243-1.757c-1.591,0-3.117,0.632-4.243,1.757
			c-1.125,1.126-1.757,2.651-1.757,4.243c0,1.591,0.632,3.117,1.757,4.242C124.683,348.571,126.209,349.204,127.8,349.204z"/>
		
			<path clip-path="url(#SVGID_18_)" fill="none" stroke="#000000" stroke-width="0.5" stroke-linejoin="round" stroke-miterlimit="10" d="
			M127.8,349.204c1.591,0,3.118-0.633,4.243-1.758c1.125-1.125,1.757-2.651,1.757-4.242c0-1.592-0.632-3.117-1.757-4.243
			c-1.125-1.125-2.651-1.757-4.243-1.757c-1.591,0-3.117,0.632-4.243,1.757c-1.125,1.126-1.757,2.651-1.757,4.243
			c0,1.591,0.632,3.117,1.757,4.242C124.683,348.571,126.209,349.204,127.8,349.204z"/>
	</g>
	<g clip-path="url(#SVGID_14_)">
		<defs>
			<rect id="SVGID_19_" x="177.35" y="342.376" width="12.5" height="12.5"/>
		</defs>
		<clipPath id="SVGID_20_">
			<use xlink:href="#SVGID_19_"  overflow="visible"/>
		</clipPath>
		<path clip-path="url(#SVGID_20_)" d="M183.6,354.626c1.591,0,3.117-0.632,4.243-1.757c1.125-1.125,1.757-2.651,1.757-4.243
			c0-1.591-0.632-3.117-1.757-4.242c-1.125-1.125-2.651-1.758-4.243-1.758s-3.118,0.633-4.243,1.758s-1.757,2.651-1.757,4.242
			c0,1.592,0.632,3.118,1.757,4.243S182.009,354.626,183.6,354.626z"/>
		
			<path clip-path="url(#SVGID_20_)" fill="none" stroke="#000000" stroke-width="0.5" stroke-linejoin="round" stroke-miterlimit="10" d="
			M183.6,354.626c1.591,0,3.117-0.632,4.243-1.757c1.125-1.125,1.757-2.651,1.757-4.243c0-1.591-0.632-3.117-1.757-4.242
			c-1.125-1.125-2.651-1.758-4.243-1.758s-3.118,0.633-4.243,1.758s-1.757,2.651-1.757,4.242c0,1.592,0.632,3.118,1.757,4.243
			S182.009,354.626,183.6,354.626z"/>
	</g>
	<g clip-path="url(#SVGID_14_)">
		<defs>
			<rect id="SVGID_21_" x="288.95" y="328.109" width="12.5" height="12.5"/>
		</defs>
		<clipPath id="SVGID_22_">
			<use xlink:href="#SVGID_21_"  overflow="visible"/>
		</clipPath>
		<path clip-path="url(#SVGID_22_)" d="M295.2,340.359c1.591,0,3.117-0.633,4.242-1.758s1.758-2.651,1.758-4.242
			c0-1.592-0.633-3.117-1.758-4.243c-1.125-1.125-2.651-1.757-4.242-1.757c-1.592,0-3.118,0.632-4.243,1.757
			c-1.125,1.126-1.757,2.651-1.757,4.243c0,1.591,0.632,3.117,1.757,4.242S293.608,340.359,295.2,340.359z"/>
		
			<path clip-path="url(#SVGID_22_)" fill="none" stroke="#000000" stroke-width="0.5" stroke-linejoin="round" stroke-miterlimit="10" d="
			M295.2,340.359c1.591,0,3.117-0.633,4.242-1.758s1.758-2.651,1.758-4.242c0-1.592-0.633-3.117-1.758-4.243
			c-1.125-1.125-2.651-1.757-4.242-1.757c-1.592,0-3.118,0.632-4.243,1.757c-1.125,1.126-1.757,2.651-1.757,4.243
			c0,1.591,0.632,3.117,1.757,4.242S293.608,340.359,295.2,340.359z"/>
	</g>
	<g clip-path="url(#SVGID_14_)">
		<defs>
			<rect id="SVGID_23_" x="512.15" y="204.71" width="12.5" height="12.5"/>
		</defs>
		<clipPath id="SVGID_24_">
			<use xlink:href="#SVGID_23_"  overflow="visible"/>
		</clipPath>
		<path clip-path="url(#SVGID_24_)" d="M518.4,216.96c1.591,0,3.117-0.633,4.242-1.758s1.758-2.651,1.758-4.242
			c0-1.591-0.633-3.118-1.758-4.243c-1.125-1.125-2.651-1.757-4.242-1.757c-1.592,0-3.118,0.632-4.243,1.757
			c-1.125,1.125-1.757,2.651-1.757,4.243c0,1.591,0.632,3.117,1.757,4.242S516.809,216.96,518.4,216.96z"/>
		
			<path clip-path="url(#SVGID_24_)" fill="none" stroke="#000000" stroke-width="0.5" stroke-linejoin="round" stroke-miterlimit="10" d="
			M518.4,216.96c1.591,0,3.117-0.633,4.242-1.758s1.758-2.651,1.758-4.242c0-1.591-0.633-3.118-1.758-4.243
			c-1.125-1.125-2.651-1.757-4.242-1.757c-1.592,0-3.118,0.632-4.243,1.757c-1.125,1.125-1.757,2.651-1.757,4.243
			c0,1.591,0.632,3.117,1.757,4.242S516.809,216.96,518.4,216.96z"/>
	</g>
</g>
<g>
	<defs>
		<rect id="SVGID_25_" x="72" y="43.2" width="446.4" height="345.6"/>
	</defs>
	<clipPath id="SVGID_26_">
		<use xlink:href="#SVGID_25_"  overflow="visible"/>
	</clipPath>
	
		<polyline clip-path="url(#SVGID_26_)" fill="none" stroke="#000000" stroke-width="2" stroke-linejoin="round" stroke-miterlimit="10" stroke-dasharray="6,6" points="
		99.9,388.029 127.8,336.503 183.6,244.222 295.2,125.387 518.4,77.742 	"/>
	<g clip-path="url(#SVGID_26_)">
		<defs>
			<rect id="SVGID_27_" x="93.65" y="381.779" width="12.5" height="12.5"/>
		</defs>
		<clipPath id="SVGID_28_">
			<use xlink:href="#SVGID_27_"  overflow="visible"/>
		</clipPath>
		<polyline clip-path="url(#SVGID_28_)" points="99.9,382.029 93.9,394.029 105.9,394.029 99.9,382.029 		"/>
		
			<polyline clip-path="url(#SVGID_28_)" fill="none" stroke="#000000" stroke-width="0.5" stroke-linejoin="round" stroke-miterlimit="10" points="
			99.9,382.029 93.9,394.029 105.9,394.029 99.9,382.029 		"/>
	</g>
	<g clip-path="url(#SVGID_26_)">
		<defs>
			<rect id="SVGID_29_" x="121.55" y="330.253" width="12.5" height="12.5"/>
		</defs>
		<clipPath id="SVGID_30_">
			<use xlink:href="#SVGID_29_"  overflow="visible"/>
		</clipPath>
		<polyline clip-path="url(#SVGID_30_)" points="127.8,330.503 121.8,342.503 133.8,342.503 127.8,330.503 		"/>
		
			<polyline clip-path="url(#SVGID_30_)" fill="none" stroke="#000000" stroke-width="0.5" stroke-linejoin="round" stroke-miterlimit="10" points="
			127.8,330.503 121.8,342.503 133.8,342.503 127.8,330.503 		"/>
	</g>
	<g clip-path="url(#SVGID_26_)">
		<defs>
			<rect id="SVGID_31_" x="177.35" y="237.972" width="12.5" height="12.5"/>
		</defs>
		<clipPath id="SVGID_32_">
			<use xlink:href="#SVGID_31_"  overflow="visible"/>
		</clipPath>
		<polyline clip-path="url(#SVGID_32_)" points="183.6,238.222 177.6,250.222 189.6,250.222 183.6,238.222 		"/>
		
			<polyline clip-path="url(#SVGID_32_)" fill="none" stroke="#000000" stroke-width="0.5" stroke-linejoin="round" stroke-miterlimit="10" points="
			183.6,238.222 177.6,250.222 189.6,250.222 183.6,238.222 		"/>
	</g>
	<g clip-path="url(#SVGID_26_)">
		<defs>
			<rect id="SVGID_33_" x="288.95" y="119.137" width="12.5" height="12.5"/>
		</defs>
		<clipPath id="SVGID_34_">
			<use xlink:href="#SVGID_33_"  overflow="visible"/>
		</clipPath>
		<polyline clip-path="url(#SVGID_34_)" points="295.2,119.387 289.2,131.387 301.2,131.387 295.2,119.387 		"/>
		
			<polyline clip-path="url(#SVGID_34_)" fill="none" stroke="#000000" stroke-width="0.5" stroke-linejoin="round" stroke-miterlimit="10" points="
			295.2,119.387 289.2,131.387 301.2,131.387 295.2,119.387 		"/>
	</g>
	<g clip-path="url(#SVGID_26_)">
		<defs>
			<rect id="SVGID_35_" x="512.15" y="71.492" width="12.5" height="12.5"/>
		</defs>
		<clipPath id="SVGID_36_">
			<use xlink:href="#SVGID_35_"  overflow="visible"/>
		</clipPath>
		<polyline clip-path="url(#SVGID_36_)" points="518.4,71.742 512.4,83.742 524.4,83.742 518.4,71.742 		"/>
		
			<polyline clip-path="url(#SVGID_36_)" fill="none" stroke="#000000" stroke-width="0.5" stroke-linejoin="round" stroke-miterlimit="10" points="
			518.4,71.742 512.4,83.742 524.4,83.742 518.4,71.742 		"/>
	</g>
</g>
<g>
	<defs>
		<rect id="SVGID_37_" x="72" y="43.2" width="446.4" height="345.6"/>
	</defs>
	<clipPath id="SVGID_38_">
		<use xlink:href="#SVGID_37_"  overflow="visible"/>
	</clipPath>
	
		<polyline clip-path="url(#SVGID_38_)" fill="none" stroke="#000000" stroke-width="2" stroke-linecap="square" stroke-linejoin="round" stroke-miterlimit="10" points="
		99.9,387.898 127.8,334.471 183.6,243.774 295.2,123.929 518.4,88.579 	"/>
	<g clip-path="url(#SVGID_38_)">
		<defs>
			<rect id="SVGID_39_" x="93.65" y="381.648" width="12.5" height="12.5"/>
		</defs>
		<clipPath id="SVGID_40_">
			<use xlink:href="#SVGID_39_"  overflow="visible"/>
		</clipPath>
		<polyline clip-path="url(#SVGID_40_)" points="99.9,381.898 93.9,393.898 105.9,393.898 99.9,381.898 		"/>
		
			<polyline clip-path="url(#SVGID_40_)" fill="none" stroke="#000000" stroke-width="0.5" stroke-linejoin="round" stroke-miterlimit="10" points="
			99.9,381.898 93.9,393.898 105.9,393.898 99.9,381.898 		"/>
	</g>
	<g clip-path="url(#SVGID_38_)">
		<defs>
			<rect id="SVGID_41_" x="121.55" y="328.221" width="12.5" height="12.5"/>
		</defs>
		<clipPath id="SVGID_42_">
			<use xlink:href="#SVGID_41_"  overflow="visible"/>
		</clipPath>
		<polyline clip-path="url(#SVGID_42_)" points="127.8,328.471 121.8,340.471 133.8,340.471 127.8,328.471 		"/>
		
			<polyline clip-path="url(#SVGID_42_)" fill="none" stroke="#000000" stroke-width="0.5" stroke-linejoin="round" stroke-miterlimit="10" points="
			127.8,328.471 121.8,340.471 133.8,340.471 127.8,328.471 		"/>
	</g>
	<g clip-path="url(#SVGID_38_)">
		<defs>
			<rect id="SVGID_43_" x="177.35" y="237.524" width="12.5" height="12.5"/>
		</defs>
		<clipPath id="SVGID_44_">
			<use xlink:href="#SVGID_43_"  overflow="visible"/>
		</clipPath>
		<polyline clip-path="url(#SVGID_44_)" points="183.6,237.774 177.6,249.774 189.6,249.774 183.6,237.774 		"/>
		
			<polyline clip-path="url(#SVGID_44_)" fill="none" stroke="#000000" stroke-width="0.5" stroke-linejoin="round" stroke-miterlimit="10" points="
			183.6,237.774 177.6,249.774 189.6,249.774 183.6,237.774 		"/>
	</g>
	<g clip-path="url(#SVGID_38_)">
		<defs>
			<rect id="SVGID_45_" x="288.95" y="117.679" width="12.5" height="12.5"/>
		</defs>
		<clipPath id="SVGID_46_">
			<use xlink:href="#SVGID_45_"  overflow="visible"/>
		</clipPath>
		<polyline clip-path="url(#SVGID_46_)" points="295.2,117.929 289.2,129.929 301.2,129.929 295.2,117.929 		"/>
		
			<polyline clip-path="url(#SVGID_46_)" fill="none" stroke="#000000" stroke-width="0.5" stroke-linejoin="round" stroke-miterlimit="10" points="
			295.2,117.929 289.2,129.929 301.2,129.929 295.2,117.929 		"/>
	</g>
	<g clip-path="url(#SVGID_38_)">
		<defs>
			<rect id="SVGID_47_" x="512.15" y="82.329" width="12.5" height="12.5"/>
		</defs>
		<clipPath id="SVGID_48_">
			<use xlink:href="#SVGID_47_"  overflow="visible"/>
		</clipPath>
		<polyline clip-path="url(#SVGID_48_)" points="518.4,82.579 512.4,94.579 524.4,94.579 518.4,82.579 		"/>
		
			<polyline clip-path="url(#SVGID_48_)" fill="none" stroke="#000000" stroke-width="0.5" stroke-linejoin="round" stroke-miterlimit="10" points="
			518.4,82.579 512.4,94.579 524.4,94.579 518.4,82.579 		"/>
	</g>
</g>
<g>
	<defs>
		<rect id="SVGID_49_" x="72" y="43.2" width="446.4" height="345.6"/>
	</defs>
	<clipPath id="SVGID_50_">
		<use xlink:href="#SVGID_49_"  overflow="visible"/>
	</clipPath>
	
		<polyline clip-path="url(#SVGID_50_)" fill="none" stroke="#000000" stroke-width="2" stroke-linejoin="round" stroke-miterlimit="10" stroke-dasharray="6,6" points="
		99.9,387.215 127.8,332.637 183.6,318.646 295.2,319.194 518.4,260.801 	"/>
	<g clip-path="url(#SVGID_50_)">
		<defs>
			<rect id="SVGID_51_" x="93.65" y="380.965" width="12.5" height="12.5"/>
		</defs>
		<clipPath id="SVGID_52_">
			<use xlink:href="#SVGID_51_"  overflow="visible"/>
		</clipPath>
		<polyline clip-path="url(#SVGID_52_)" points="93.9,393.215 105.9,393.215 105.9,381.215 93.9,381.215 93.9,393.215 		"/>
		
			<polyline clip-path="url(#SVGID_52_)" fill="none" stroke="#000000" stroke-width="0.5" stroke-linejoin="round" stroke-miterlimit="10" points="
			93.9,393.215 105.9,393.215 105.9,381.215 93.9,381.215 93.9,393.215 		"/>
	</g>
	<g clip-path="url(#SVGID_50_)">
		<defs>
			<rect id="SVGID_53_" x="121.55" y="326.387" width="12.5" height="12.5"/>
		</defs>
		<clipPath id="SVGID_54_">
			<use xlink:href="#SVGID_53_"  overflow="visible"/>
		</clipPath>
		<polyline clip-path="url(#SVGID_54_)" points="121.8,338.637 133.8,338.637 133.8,326.637 121.8,326.637 121.8,338.637 		"/>
		
			<polyline clip-path="url(#SVGID_54_)" fill="none" stroke="#000000" stroke-width="0.5" stroke-linejoin="round" stroke-miterlimit="10" points="
			121.8,338.637 133.8,338.637 133.8,326.637 121.8,326.637 121.8,338.637 		"/>
	</g>
	<g clip-path="url(#SVGID_50_)">
		<defs>
			<rect id="SVGID_55_" x="177.35" y="312.396" width="12.5" height="12.5"/>
		</defs>
		<clipPath id="SVGID_56_">
			<use xlink:href="#SVGID_55_"  overflow="visible"/>
		</clipPath>
		<polyline clip-path="url(#SVGID_56_)" points="177.6,324.646 189.6,324.646 189.6,312.646 177.6,312.646 177.6,324.646 		"/>
		
			<polyline clip-path="url(#SVGID_56_)" fill="none" stroke="#000000" stroke-width="0.5" stroke-linejoin="round" stroke-miterlimit="10" points="
			177.6,324.646 189.6,324.646 189.6,312.646 177.6,312.646 177.6,324.646 		"/>
	</g>
	<g clip-path="url(#SVGID_50_)">
		<defs>
			<rect id="SVGID_57_" x="288.95" y="312.944" width="12.5" height="12.5"/>
		</defs>
		<clipPath id="SVGID_58_">
			<use xlink:href="#SVGID_57_"  overflow="visible"/>
		</clipPath>
		<polyline clip-path="url(#SVGID_58_)" points="289.2,325.194 301.2,325.194 301.2,313.194 289.2,313.194 289.2,325.194 		"/>
		
			<polyline clip-path="url(#SVGID_58_)" fill="none" stroke="#000000" stroke-width="0.5" stroke-linejoin="round" stroke-miterlimit="10" points="
			289.2,325.194 301.2,325.194 301.2,313.194 289.2,313.194 289.2,325.194 		"/>
	</g>
	<g clip-path="url(#SVGID_50_)">
		<defs>
			<rect id="SVGID_59_" x="512.15" y="254.551" width="12.5" height="12.5"/>
		</defs>
		<clipPath id="SVGID_60_">
			<use xlink:href="#SVGID_59_"  overflow="visible"/>
		</clipPath>
		<polyline clip-path="url(#SVGID_60_)" points="512.4,266.801 524.4,266.801 524.4,254.801 512.4,254.801 512.4,266.801 		"/>
		
			<polyline clip-path="url(#SVGID_60_)" fill="none" stroke="#000000" stroke-width="0.5" stroke-linejoin="round" stroke-miterlimit="10" points="
			512.4,266.801 524.4,266.801 524.4,254.801 512.4,254.801 512.4,266.801 		"/>
	</g>
</g>
<g>
	<defs>
		<rect id="SVGID_61_" x="72" y="43.2" width="446.4" height="345.6"/>
	</defs>
	<clipPath id="SVGID_62_">
		<use xlink:href="#SVGID_61_"  overflow="visible"/>
	</clipPath>
	
		<polyline clip-path="url(#SVGID_62_)" fill="none" stroke="#000000" stroke-width="2" stroke-linecap="square" stroke-linejoin="round" stroke-miterlimit="10" points="
		99.9,387.601 127.8,332.272 183.6,319.005 295.2,318.476 518.4,260.987 	"/>
	<g clip-path="url(#SVGID_62_)">
		<defs>
			<rect id="SVGID_63_" x="93.65" y="381.351" width="12.5" height="12.5"/>
		</defs>
		<clipPath id="SVGID_64_">
			<use xlink:href="#SVGID_63_"  overflow="visible"/>
		</clipPath>
		<polyline clip-path="url(#SVGID_64_)" points="93.9,393.601 105.9,393.601 105.9,381.601 93.9,381.601 93.9,393.601 		"/>
		
			<polyline clip-path="url(#SVGID_64_)" fill="none" stroke="#000000" stroke-width="0.5" stroke-linejoin="round" stroke-miterlimit="10" points="
			93.9,393.601 105.9,393.601 105.9,381.601 93.9,381.601 93.9,393.601 		"/>
	</g>
	<g clip-path="url(#SVGID_62_)">
		<defs>
			<rect id="SVGID_65_" x="121.55" y="326.022" width="12.5" height="12.5"/>
		</defs>
		<clipPath id="SVGID_66_">
			<use xlink:href="#SVGID_65_"  overflow="visible"/>
		</clipPath>
		<polyline clip-path="url(#SVGID_66_)" points="121.8,338.272 133.8,338.272 133.8,326.272 121.8,326.272 121.8,338.272 		"/>
		
			<polyline clip-path="url(#SVGID_66_)" fill="none" stroke="#000000" stroke-width="0.5" stroke-linejoin="round" stroke-miterlimit="10" points="
			121.8,338.272 133.8,338.272 133.8,326.272 121.8,326.272 121.8,338.272 		"/>
	</g>
	<g clip-path="url(#SVGID_62_)">
		<defs>
			<rect id="SVGID_67_" x="177.35" y="312.755" width="12.5" height="12.5"/>
		</defs>
		<clipPath id="SVGID_68_">
			<use xlink:href="#SVGID_67_"  overflow="visible"/>
		</clipPath>
		<polyline clip-path="url(#SVGID_68_)" points="177.6,325.005 189.6,325.005 189.6,313.005 177.6,313.005 177.6,325.005 		"/>
		
			<polyline clip-path="url(#SVGID_68_)" fill="none" stroke="#000000" stroke-width="0.5" stroke-linejoin="round" stroke-miterlimit="10" points="
			177.6,325.005 189.6,325.005 189.6,313.005 177.6,313.005 177.6,325.005 		"/>
	</g>
	<g clip-path="url(#SVGID_62_)">
		<defs>
			<rect id="SVGID_69_" x="288.95" y="312.226" width="12.5" height="12.5"/>
		</defs>
		<clipPath id="SVGID_70_">
			<use xlink:href="#SVGID_69_"  overflow="visible"/>
		</clipPath>
		<polyline clip-path="url(#SVGID_70_)" points="289.2,324.476 301.2,324.476 301.2,312.476 289.2,312.476 289.2,324.476 		"/>
		
			<polyline clip-path="url(#SVGID_70_)" fill="none" stroke="#000000" stroke-width="0.5" stroke-linejoin="round" stroke-miterlimit="10" points="
			289.2,324.476 301.2,324.476 301.2,312.476 289.2,312.476 289.2,324.476 		"/>
	</g>
	<g clip-path="url(#SVGID_62_)">
		<defs>
			<rect id="SVGID_71_" x="512.15" y="254.737" width="12.5" height="12.5"/>
		</defs>
		<clipPath id="SVGID_72_">
			<use xlink:href="#SVGID_71_"  overflow="visible"/>
		</clipPath>
		<polyline clip-path="url(#SVGID_72_)" points="512.4,266.987 524.4,266.987 524.4,254.987 512.4,254.987 512.4,266.987 		"/>
		
			<polyline clip-path="url(#SVGID_72_)" fill="none" stroke="#000000" stroke-width="0.5" stroke-linejoin="round" stroke-miterlimit="10" points="
			512.4,266.987 524.4,266.987 524.4,254.987 512.4,254.987 512.4,266.987 		"/>
	</g>
</g>
<g>
	<defs>
		<rect id="SVGID_73_" x="72" y="43.2" width="446.4" height="345.6"/>
	</defs>
	<clipPath id="SVGID_74_">
		<use xlink:href="#SVGID_73_"  overflow="visible"/>
	</clipPath>
	
		<line clip-path="url(#SVGID_74_)" fill="none" stroke="#000000" stroke-width="0.5" stroke-linejoin="round" stroke-miterlimit="10" stroke-dasharray="1,3" x1="99.9" y1="388.8" x2="99.9" y2="43.2"/>
</g>
<line fill="none" stroke="#000000" stroke-width="0.5" stroke-linejoin="round" stroke-miterlimit="10" x1="99.9" y1="388.8" x2="99.9" y2="384.8"/>
<line fill="none" stroke="#000000" stroke-width="0.5" stroke-linejoin="round" stroke-miterlimit="10" x1="99.9" y1="43.2" x2="99.9" y2="47.2"/>
<polyline points="98.044,405.718 101.264,405.718 101.264,394.598 97.764,395.298 97.764,393.498 101.244,392.798 103.224,392.798 
	103.224,405.718 106.444,405.718 106.444,407.378 98.044,407.378 98.044,405.718 "/>
<g>
	<defs>
		<rect id="SVGID_75_" x="72" y="43.2" width="446.4" height="345.6"/>
	</defs>
	<clipPath id="SVGID_76_">
		<use xlink:href="#SVGID_75_"  overflow="visible"/>
	</clipPath>
	
		<line clip-path="url(#SVGID_76_)" fill="none" stroke="#000000" stroke-width="0.5" stroke-linejoin="round" stroke-miterlimit="10" stroke-dasharray="1,3" x1="127.8" y1="388.8" x2="127.8" y2="43.2"/>
</g>
<line fill="none" stroke="#000000" stroke-width="0.5" stroke-linejoin="round" stroke-miterlimit="10" x1="127.8" y1="388.8" x2="127.8" y2="384.8"/>
<line fill="none" stroke="#000000" stroke-width="0.5" stroke-linejoin="round" stroke-miterlimit="10" x1="127.8" y1="43.2" x2="127.8" y2="47.2"/>
<path d="M127.015,405.983h6.88v1.66h-9.26v-1.66c0.74-0.76,1.76-1.8,3.06-3.12c1.28-1.3,2.1-2.14,2.44-2.52
	c0.64-0.7,1.08-1.3,1.32-1.8c0.24-0.48,0.38-0.98,0.38-1.46c0-0.76-0.28-1.4-0.82-1.88c-0.54-0.48-1.24-0.74-2.12-0.74
	c-0.62,0-1.28,0.12-1.96,0.32c-0.68,0.22-1.42,0.54-2.2,0.979v-2c0.8-0.32,1.54-0.56,2.22-0.72c0.68-0.16,1.32-0.24,1.9-0.24
	c1.5,0,2.7,0.38,3.6,1.14c0.9,0.761,1.36,1.761,1.36,3.021c0,0.6-0.12,1.18-0.34,1.7c-0.22,0.54-0.62,1.18-1.22,1.899
	c-0.16,0.2-0.68,0.74-1.56,1.641C129.815,403.104,128.595,404.363,127.015,405.983"/>
<g>
	<defs>
		<rect id="SVGID_77_" x="72" y="43.2" width="446.4" height="345.6"/>
	</defs>
	<clipPath id="SVGID_78_">
		<use xlink:href="#SVGID_77_"  overflow="visible"/>
	</clipPath>
	
		<line clip-path="url(#SVGID_78_)" fill="none" stroke="#000000" stroke-width="0.5" stroke-linejoin="round" stroke-miterlimit="10" stroke-dasharray="1,3" x1="183.6" y1="388.8" x2="183.6" y2="43.2"/>
</g>
<line fill="none" stroke="#000000" stroke-width="0.5" stroke-linejoin="round" stroke-miterlimit="10" x1="183.6" y1="388.8" x2="183.6" y2="384.8"/>
<line fill="none" stroke="#000000" stroke-width="0.5" stroke-linejoin="round" stroke-miterlimit="10" x1="183.6" y1="43.2" x2="183.6" y2="47.2"/>
<path d="M185.328,392.798h2.48v9.5h2.08v1.641h-2.08v3.439h-1.96v-3.439h-6.58v-1.9L185.328,392.798 M185.848,394.519l-4.98,7.779
	h4.98V394.519"/>
<g>
	<defs>
		<rect id="SVGID_79_" x="72" y="43.2" width="446.4" height="345.6"/>
	</defs>
	<clipPath id="SVGID_80_">
		<use xlink:href="#SVGID_79_"  overflow="visible"/>
	</clipPath>
	
		<line clip-path="url(#SVGID_80_)" fill="none" stroke="#000000" stroke-width="0.5" stroke-linejoin="round" stroke-miterlimit="10" stroke-dasharray="1,3" x1="295.2" y1="388.8" x2="295.2" y2="43.2"/>
</g>
<line fill="none" stroke="#000000" stroke-width="0.5" stroke-linejoin="round" stroke-miterlimit="10" x1="295.2" y1="388.8" x2="295.2" y2="384.8"/>
<line fill="none" stroke="#000000" stroke-width="0.5" stroke-linejoin="round" stroke-miterlimit="10" x1="295.2" y1="43.2" x2="295.2" y2="47.2"/>
<path d="M293.86,396.764c0,0.76,0.22,1.36,0.699,1.78c0.48,0.42,1.141,0.62,2,0.62c0.841,0,1.5-0.2,1.98-0.62
	c0.479-0.42,0.72-1.021,0.72-1.78s-0.24-1.34-0.72-1.76c-0.48-0.42-1.14-0.641-1.98-0.641c-0.859,0-1.52,0.221-2,0.641
	C294.08,395.424,293.86,396.004,293.86,396.764 M294.58,399.884c-0.84-0.2-1.5-0.6-1.98-1.18c-0.479-0.58-0.699-1.28-0.699-2.12
	c0-1.16,0.399-2.08,1.239-2.76c0.82-0.681,1.96-1.021,3.42-1.021c1.44,0,2.58,0.34,3.421,1.021c0.819,0.68,1.239,1.6,1.239,2.76
	c0,0.84-0.239,1.54-0.72,2.12s-1.12,0.979-1.96,1.18c0.94,0.22,1.68,0.66,2.22,1.3c0.521,0.641,0.8,1.44,0.8,2.36
	c0,1.42-0.439,2.5-1.3,3.24c-0.88,0.76-2.1,1.119-3.7,1.119c-1.619,0-2.859-0.359-3.72-1.119c-0.859-0.74-1.28-1.82-1.28-3.24
	c0-0.92,0.261-1.72,0.801-2.36C292.88,400.544,293.62,400.104,294.58,399.884 M296.56,400.724c-0.939,0-1.68,0.26-2.22,0.76
	s-0.8,1.181-0.8,2.061s0.26,1.58,0.8,2.08s1.28,0.739,2.22,0.739c0.921,0,1.66-0.239,2.2-0.76c0.54-0.5,0.82-1.18,0.82-2.06
	s-0.28-1.561-0.8-2.061C298.24,400.983,297.5,400.724,296.56,400.724"/>
<g>
	<defs>
		<rect id="SVGID_81_" x="72" y="43.2" width="446.4" height="345.6"/>
	</defs>
	<clipPath id="SVGID_82_">
		<use xlink:href="#SVGID_81_"  overflow="visible"/>
	</clipPath>
	
		<line clip-path="url(#SVGID_82_)" fill="none" stroke="#000000" stroke-width="0.5" stroke-linejoin="round" stroke-miterlimit="10" stroke-dasharray="1,3" x1="518.4" y1="388.8" x2="518.4" y2="43.2"/>
</g>
<line fill="none" stroke="#000000" stroke-width="0.5" stroke-linejoin="round" stroke-miterlimit="10" x1="518.4" y1="388.8" x2="518.4" y2="384.8"/>
<line fill="none" stroke="#000000" stroke-width="0.5" stroke-linejoin="round" stroke-miterlimit="10" x1="518.4" y1="43.2" x2="518.4" y2="47.2"/>
<polyline points="509.888,405.983 513.107,405.983 513.107,394.863 509.607,395.563 509.607,393.764 513.088,393.063 
	515.067,393.063 515.067,405.983 518.288,405.983 518.288,407.644 509.888,407.644 509.888,405.983 "/>
<path d="M530.647,393.384v1.8c-0.5-0.24-1-0.42-1.5-0.54c-0.52-0.12-1.02-0.18-1.5-0.18c-1.319,0-2.319,0.439-3,1.32
	c-0.68,0.88-1.08,2.22-1.159,3.979c0.38-0.56,0.859-1,1.439-1.3s1.22-0.46,1.92-0.46c1.46,0,2.62,0.46,3.46,1.34s1.28,2.1,1.28,3.62
	c0,1.5-0.46,2.7-1.34,3.6c-0.88,0.9-2.061,1.34-3.521,1.34c-1.68,0-2.979-0.64-3.859-1.92c-0.9-1.279-1.341-3.159-1.341-5.62
	c0-2.3,0.54-4.14,1.641-5.5c1.08-1.359,2.56-2.06,4.399-2.06c0.48,0,0.98,0.06,1.5,0.14
	C529.567,393.044,530.088,393.184,530.647,393.384 M526.728,399.563c-0.88,0-1.58,0.32-2.1,0.92c-0.521,0.601-0.78,1.44-0.78,2.48
	c0,1.06,0.26,1.899,0.78,2.5c0.52,0.6,1.22,0.899,2.1,0.899s1.58-0.3,2.101-0.899c0.52-0.601,0.779-1.44,0.779-2.5
	c0-1.04-0.26-1.88-0.779-2.48C528.308,399.884,527.607,399.563,526.728,399.563"/>
<path d="M242.108,413.769l-1.02,4.06h2.86l1.02-4.06h1.56l-1,4.06h3.04v1.5h-3.42l-0.8,3.26h3.1v1.5h-3.48l-1.02,4.04h-1.56l1-4.04
	h-2.86l-1,4.04h-1.58l1.02-4.04h-3.08v-1.5h3.44l0.82-3.26h-3.14v-1.5h3.52l1-4.06H242.108 M243.568,419.328h-2.84l-0.82,3.26h2.86
	L243.568,419.328"/>
<path d="M262.588,416.928c1.56,0,2.78,0.521,3.68,1.521c0.88,1.02,1.34,2.42,1.34,4.22s-0.46,3.2-1.34,4.2
	c-0.9,1.02-2.12,1.52-3.68,1.52c-1.58,0-2.82-0.5-3.7-1.52c-0.88-1-1.32-2.4-1.32-4.2s0.44-3.2,1.32-4.22
	C259.768,417.448,261.008,416.928,262.588,416.928 M262.588,418.448c-0.96,0-1.72,0.38-2.28,1.14s-0.84,1.78-0.84,3.08
	c0,1.32,0.26,2.34,0.82,3.101c0.56,0.76,1.32,1.119,2.3,1.119c0.96,0,1.72-0.359,2.28-1.119c0.56-0.761,0.84-1.78,0.84-3.101
	c0-1.28-0.28-2.32-0.84-3.08S263.548,418.448,262.588,418.448"/>
<path d="M276.128,412.928v1.5h-1.72c-0.64,0-1.1,0.141-1.34,0.4c-0.26,0.26-0.38,0.72-0.38,1.4v0.96h2.96v1.399h-2.96v9.54h-1.8
	v-9.54h-1.72v-1.399h1.72v-0.761c0-1.199,0.28-2.1,0.84-2.659c0.56-0.561,1.46-0.841,2.7-0.841H276.128"/>
<path d="M285.768,414.088v3.101h3.7v1.399h-3.7v5.94c0,0.899,0.12,1.479,0.36,1.72c0.24,0.26,0.74,0.38,1.5,0.38h1.839v1.5h-1.839
	c-1.4,0-2.36-0.26-2.88-0.78c-0.52-0.52-0.78-1.46-0.78-2.819v-5.94h-1.32v-1.399h1.32v-3.101H285.768"/>
<path d="M300.928,421.528v6.6h-1.8v-6.54c0-1.04-0.22-1.8-0.62-2.319c-0.399-0.521-1-0.78-1.8-0.78c-0.979,0-1.74,0.32-2.3,0.939
	c-0.56,0.62-0.84,1.46-0.84,2.521v6.18h-1.8v-15.2h1.8v5.96c0.42-0.64,0.92-1.14,1.52-1.46c0.58-0.319,1.261-0.5,2.021-0.5
	c1.24,0,2.2,0.4,2.84,1.181C300.588,418.888,300.928,420.028,300.928,421.528"/>
<path d="M310.849,418.868c-0.2-0.12-0.421-0.2-0.66-0.26c-0.24-0.04-0.5-0.08-0.78-0.08c-1.02,0-1.8,0.34-2.34,1
	c-0.561,0.66-0.82,1.6-0.82,2.84v5.76h-1.8v-10.939h1.8v1.699c0.36-0.659,0.86-1.159,1.46-1.479c0.601-0.32,1.34-0.48,2.22-0.48
	c0.12,0,0.261,0.021,0.421,0.021c0.14,0.02,0.3,0.04,0.5,0.08V418.868"/>
<path d="M320.288,421.688c-0.02-0.98-0.3-1.761-0.82-2.36c-0.54-0.58-1.26-0.88-2.14-0.88c-1,0-1.8,0.3-2.4,0.86
	c-0.6,0.56-0.96,1.359-1.04,2.38H320.288 M322.088,422.208v0.88h-8.26c0.08,1.24,0.44,2.2,1.12,2.84c0.66,0.641,1.58,0.96,2.78,0.96
	c0.68,0,1.359-0.079,2-0.239c0.64-0.16,1.3-0.42,1.939-0.78v1.7c-0.64,0.279-1.3,0.5-1.979,0.62c-0.681,0.12-1.38,0.199-2.061,0.199
	c-1.76,0-3.14-0.5-4.16-1.5c-1.02-1-1.52-2.38-1.52-4.119c0-1.78,0.479-3.2,1.439-4.261c0.96-1.04,2.28-1.58,3.921-1.58
	c1.479,0,2.64,0.48,3.5,1.42C321.648,419.309,322.088,420.588,322.088,422.208"/>
<path d="M333.588,421.888v6.24h-1.8v-1.66c-0.42,0.681-0.939,1.16-1.54,1.46c-0.6,0.301-1.359,0.46-2.24,0.46
	c-1.119,0-2.02-0.3-2.68-0.92s-0.979-1.46-0.979-2.52c0-1.22,0.399-2.14,1.239-2.78c0.82-0.62,2.04-0.939,3.681-0.939h2.52v-0.181
	c0-0.819-0.28-1.46-0.819-1.92c-0.54-0.439-1.301-0.68-2.28-0.68c-0.641,0-1.24,0.08-1.84,0.24c-0.601,0.159-1.16,0.38-1.7,0.659
	v-1.659c0.64-0.24,1.28-0.44,1.899-0.561c0.62-0.12,1.221-0.2,1.82-0.2c1.58,0,2.76,0.42,3.54,1.24S333.588,420.229,333.588,421.888
	 M330.008,422.628c-1.46,0-2.46,0.181-3.02,0.5c-0.56,0.34-0.84,0.9-0.84,1.7c0,0.64,0.2,1.16,0.62,1.52
	c0.42,0.381,1,0.561,1.72,0.561c1,0,1.8-0.34,2.4-1.061c0.6-0.699,0.899-1.64,0.899-2.819v-0.4H330.008"/>
<path d="M338.368,422.668c0,1.32,0.26,2.36,0.8,3.12s1.301,1.12,2.261,1.12c0.939,0,1.68-0.36,2.239-1.12
	c0.54-0.76,0.82-1.8,0.82-3.12s-0.28-2.34-0.82-3.1c-0.56-0.76-1.3-1.141-2.239-1.141c-0.96,0-1.721,0.381-2.261,1.141
	S338.368,421.348,338.368,422.668 M344.488,418.848v-5.92h1.8v15.2h-1.8v-1.64c-0.38,0.66-0.86,1.14-1.439,1.439
	c-0.58,0.301-1.261,0.46-2.061,0.46c-1.32,0-2.4-0.52-3.24-1.56s-1.239-2.44-1.239-4.16s0.399-3.1,1.239-4.16
	c0.84-1.04,1.92-1.58,3.24-1.58c0.8,0,1.48,0.16,2.061,0.48C343.628,417.729,344.108,418.208,344.488,418.848"/>
<path d="M356.969,417.508v1.7c-0.521-0.24-1.04-0.439-1.58-0.58c-0.561-0.12-1.12-0.2-1.7-0.2c-0.9,0-1.58,0.141-2.021,0.42
	c-0.439,0.28-0.66,0.681-0.66,1.221c0,0.42,0.16,0.74,0.48,0.979c0.32,0.24,0.96,0.48,1.92,0.681l0.62,0.14
	c1.28,0.28,2.18,0.68,2.72,1.16c0.521,0.5,0.8,1.2,0.8,2.08c0,1.02-0.399,1.819-1.199,2.399c-0.801,0.601-1.92,0.88-3.32,0.88
	c-0.6,0-1.2-0.06-1.84-0.159c-0.641-0.101-1.3-0.261-2-0.5v-1.86c0.66,0.36,1.319,0.62,1.96,0.78c0.64,0.18,1.28,0.26,1.92,0.26
	c0.84,0,1.5-0.14,1.96-0.42c0.44-0.28,0.68-0.7,0.68-1.24c0-0.479-0.18-0.86-0.5-1.12c-0.319-0.26-1.04-0.52-2.16-0.76l-0.619-0.14
	c-1.12-0.24-1.94-0.601-2.421-1.08c-0.5-0.48-0.739-1.141-0.739-2c0-1.021,0.359-1.82,1.08-2.38c0.72-0.561,1.76-0.841,3.12-0.841
	c0.659,0,1.279,0.061,1.88,0.16C355.929,417.188,356.469,417.328,356.969,417.508"/>
<g>
	<defs>
		<rect id="SVGID_83_" x="72" y="43.2" width="446.4" height="345.6"/>
	</defs>
	<clipPath id="SVGID_84_">
		<use xlink:href="#SVGID_83_"  overflow="visible"/>
	</clipPath>
	
		<line clip-path="url(#SVGID_84_)" fill="none" stroke="#000000" stroke-width="0.5" stroke-linejoin="round" stroke-miterlimit="10" stroke-dasharray="1,3" x1="72" y1="388.8" x2="518.4" y2="388.8"/>
</g>
<line fill="none" stroke="#000000" stroke-width="0.5" stroke-linejoin="round" stroke-miterlimit="10" x1="72" y1="388.8" x2="76" y2="388.8"/>
<line fill="none" stroke="#000000" stroke-width="0.5" stroke-linejoin="round" stroke-miterlimit="10" x1="518.4" y1="388.8" x2="514.4" y2="388.8"/>
<polyline points="61.808,394.429 65.028,394.429 65.028,383.309 61.528,384.009 61.528,382.209 65.008,381.509 66.988,381.509 
	66.988,394.429 70.208,394.429 70.208,396.089 61.808,396.089 61.808,394.429 "/>
<g>
	<defs>
		<rect id="SVGID_85_" x="72" y="43.2" width="446.4" height="345.6"/>
	</defs>
	<clipPath id="SVGID_86_">
		<use xlink:href="#SVGID_85_"  overflow="visible"/>
	</clipPath>
	
		<line clip-path="url(#SVGID_86_)" fill="none" stroke="#000000" stroke-width="0.5" stroke-linejoin="round" stroke-miterlimit="10" stroke-dasharray="1,3" x1="72" y1="339.429" x2="518.4" y2="339.429"/>
</g>
<line fill="none" stroke="#000000" stroke-width="0.5" stroke-linejoin="round" stroke-miterlimit="10" x1="72" y1="339.429" x2="76" y2="339.429"/>
<line fill="none" stroke="#000000" stroke-width="0.5" stroke-linejoin="round" stroke-miterlimit="10" x1="518.4" y1="339.429" x2="514.4" y2="339.429"/>
<path d="M62.59,345.19h6.88v1.66h-9.26v-1.66c0.74-0.76,1.76-1.8,3.06-3.12c1.28-1.3,2.1-2.14,2.44-2.52
	c0.64-0.7,1.08-1.301,1.32-1.801c0.24-0.479,0.38-0.979,0.38-1.46c0-0.76-0.28-1.399-0.82-1.88c-0.54-0.479-1.24-0.739-2.12-0.739
	c-0.62,0-1.28,0.119-1.96,0.319c-0.68,0.221-1.42,0.54-2.2,0.98v-2c0.8-0.32,1.54-0.561,2.22-0.721c0.68-0.159,1.32-0.239,1.9-0.239
	c1.5,0,2.7,0.38,3.6,1.14c0.9,0.76,1.36,1.76,1.36,3.021c0,0.6-0.12,1.18-0.34,1.699c-0.22,0.54-0.62,1.181-1.22,1.9
	c-0.16,0.2-0.68,0.74-1.56,1.64C65.39,342.311,64.17,343.57,62.59,345.19"/>
<g>
	<defs>
		<rect id="SVGID_87_" x="72" y="43.2" width="446.4" height="345.6"/>
	</defs>
	<clipPath id="SVGID_88_">
		<use xlink:href="#SVGID_87_"  overflow="visible"/>
	</clipPath>
	
		<line clip-path="url(#SVGID_88_)" fill="none" stroke="#000000" stroke-width="0.5" stroke-linejoin="round" stroke-miterlimit="10" stroke-dasharray="1,3" x1="72" y1="290.058" x2="518.4" y2="290.058"/>
</g>
<line fill="none" stroke="#000000" stroke-width="0.5" stroke-linejoin="round" stroke-miterlimit="10" x1="72" y1="290.058" x2="76" y2="290.058"/>
<line fill="none" stroke="#000000" stroke-width="0.5" stroke-linejoin="round" stroke-miterlimit="10" x1="518.4" y1="290.058" x2="514.4" y2="290.058"/>
<path d="M66.526,289.479c0.94,0.2,1.68,0.62,2.2,1.26s0.8,1.44,0.8,2.36c0,1.439-0.5,2.56-1.48,3.34c-1,0.78-2.4,1.16-4.22,1.16
	c-0.62,0-1.26-0.061-1.9-0.181c-0.64-0.1-1.32-0.279-2-0.52v-1.9c0.54,0.32,1.14,0.561,1.8,0.721c0.64,0.159,1.32,0.239,2.04,0.239
	c1.24,0,2.18-0.239,2.82-0.72c0.64-0.479,0.98-1.2,0.98-2.14c0-0.84-0.3-1.521-0.9-2c-0.6-0.48-1.44-0.74-2.52-0.74h-1.7v-1.62h1.78
	c0.96,0,1.7-0.18,2.22-0.58c0.52-0.38,0.78-0.939,0.78-1.68s-0.28-1.32-0.8-1.72c-0.54-0.4-1.3-0.601-2.28-0.601
	c-0.54,0-1.12,0.061-1.74,0.181c-0.62,0.119-1.3,0.3-2.04,0.539v-1.76c0.74-0.2,1.44-0.359,2.1-0.46c0.64-0.1,1.26-0.16,1.86-0.16
	c1.48,0,2.66,0.341,3.54,1.021s1.32,1.6,1.32,2.76c0,0.8-0.24,1.48-0.7,2.04S67.366,289.278,66.526,289.479"/>
<g>
	<defs>
		<rect id="SVGID_89_" x="72" y="43.2" width="446.4" height="345.6"/>
	</defs>
	<clipPath id="SVGID_90_">
		<use xlink:href="#SVGID_89_"  overflow="visible"/>
	</clipPath>
	
		<line clip-path="url(#SVGID_90_)" fill="none" stroke="#000000" stroke-width="0.5" stroke-linejoin="round" stroke-miterlimit="10" stroke-dasharray="1,3" x1="72" y1="240.686" x2="518.4" y2="240.686"/>
</g>
<line fill="none" stroke="#000000" stroke-width="0.5" stroke-linejoin="round" stroke-miterlimit="10" x1="72" y1="240.686" x2="76" y2="240.686"/>
<line fill="none" stroke="#000000" stroke-width="0.5" stroke-linejoin="round" stroke-miterlimit="10" x1="518.4" y1="240.686" x2="514.4" y2="240.686"/>
<path d="M64.415,233.395h2.48v9.5h2.08v1.641h-2.08v3.439h-1.96v-3.439h-6.58v-1.9L64.415,233.395 M64.935,235.115l-4.98,7.779h4.98
	V235.115"/>
<g>
	<defs>
		<rect id="SVGID_91_" x="72" y="43.2" width="446.4" height="345.6"/>
	</defs>
	<clipPath id="SVGID_92_">
		<use xlink:href="#SVGID_91_"  overflow="visible"/>
	</clipPath>
	
		<line clip-path="url(#SVGID_92_)" fill="none" stroke="#000000" stroke-width="0.5" stroke-linejoin="round" stroke-miterlimit="10" stroke-dasharray="1,3" x1="72" y1="191.314" x2="518.4" y2="191.314"/>
</g>
<line fill="none" stroke="#000000" stroke-width="0.5" stroke-linejoin="round" stroke-miterlimit="10" x1="72" y1="191.314" x2="76" y2="191.314"/>
<line fill="none" stroke="#000000" stroke-width="0.5" stroke-linejoin="round" stroke-miterlimit="10" x1="518.4" y1="191.314" x2="514.4" y2="191.314"/>
<path d="M60.723,183.883h7.74v1.66h-5.94v3.58c0.28-0.1,0.58-0.18,0.86-0.22c0.28-0.04,0.58-0.08,0.86-0.08
	c1.62,0,2.9,0.46,3.86,1.34c0.96,0.9,1.44,2.1,1.44,3.62c0,1.58-0.5,2.8-1.48,3.66c-0.98,0.86-2.36,1.28-4.12,1.28
	c-0.62,0-1.24-0.06-1.88-0.14c-0.64-0.1-1.28-0.24-1.96-0.46v-1.98c0.58,0.32,1.18,0.56,1.82,0.72c0.62,0.16,1.28,0.22,1.98,0.22
	c1.12,0,2.02-0.28,2.68-0.88c0.64-0.6,0.98-1.4,0.98-2.42c0-1-0.34-1.8-0.98-2.4c-0.66-0.6-1.56-0.9-2.68-0.9
	c-0.52,0-1.06,0.06-1.58,0.18c-0.52,0.12-1.06,0.3-1.6,0.54V183.883"/>
<g>
	<defs>
		<rect id="SVGID_93_" x="72" y="43.2" width="446.4" height="345.6"/>
	</defs>
	<clipPath id="SVGID_94_">
		<use xlink:href="#SVGID_93_"  overflow="visible"/>
	</clipPath>
	
		<line clip-path="url(#SVGID_94_)" fill="none" stroke="#000000" stroke-width="0.5" stroke-linejoin="round" stroke-miterlimit="10" stroke-dasharray="1,3" x1="72" y1="141.943" x2="518.4" y2="141.943"/>
</g>
<line fill="none" stroke="#000000" stroke-width="0.5" stroke-linejoin="round" stroke-miterlimit="10" x1="72" y1="141.943" x2="76" y2="141.943"/>
<line fill="none" stroke="#000000" stroke-width="0.5" stroke-linejoin="round" stroke-miterlimit="10" x1="518.4" y1="141.943" x2="514.4" y2="141.943"/>
<path d="M68.442,134.964v1.8c-0.5-0.24-1-0.42-1.5-0.54c-0.52-0.12-1.02-0.18-1.5-0.18c-1.32,0-2.32,0.44-3,1.32
	s-1.08,2.22-1.16,3.98c0.38-0.56,0.86-1,1.44-1.3c0.58-0.3,1.22-0.46,1.92-0.46c1.46,0,2.62,0.46,3.46,1.34
	c0.84,0.88,1.28,2.1,1.28,3.62c0,1.5-0.46,2.7-1.34,3.6s-2.06,1.34-3.52,1.34c-1.68,0-2.98-0.64-3.86-1.92
	c-0.9-1.28-1.34-3.16-1.34-5.62c0-2.3,0.54-4.14,1.64-5.5c1.08-1.36,2.56-2.06,4.4-2.06c0.48,0,0.98,0.06,1.5,0.14
	C67.362,134.624,67.882,134.764,68.442,134.964 M64.522,141.144c-0.88,0-1.58,0.32-2.1,0.92s-0.78,1.44-0.78,2.48
	c0,1.06,0.26,1.9,0.78,2.5c0.52,0.6,1.22,0.9,2.1,0.9s1.58-0.3,2.1-0.9c0.52-0.6,0.78-1.44,0.78-2.5c0-1.04-0.26-1.88-0.78-2.48
	S65.402,141.144,64.522,141.144"/>
<g>
	<defs>
		<rect id="SVGID_95_" x="72" y="43.2" width="446.4" height="345.6"/>
	</defs>
	<clipPath id="SVGID_96_">
		<use xlink:href="#SVGID_95_"  overflow="visible"/>
	</clipPath>
	
		<line clip-path="url(#SVGID_96_)" fill="none" stroke="#000000" stroke-width="0.5" stroke-linejoin="round" stroke-miterlimit="10" stroke-dasharray="1,3" x1="72" y1="92.571" x2="518.4" y2="92.571"/>
</g>
<line fill="none" stroke="#000000" stroke-width="0.5" stroke-linejoin="round" stroke-miterlimit="10" x1="72" y1="92.571" x2="76" y2="92.571"/>
<line fill="none" stroke="#000000" stroke-width="0.5" stroke-linejoin="round" stroke-miterlimit="10" x1="518.4" y1="92.571" x2="514.4" y2="92.571"/>
<polyline points="60.265,85.28 69.645,85.28 69.645,86.121 64.345,99.86 62.285,99.86 67.265,86.94 60.265,86.94 60.265,85.28 "/>
<g>
	<defs>
		<rect id="SVGID_97_" x="72" y="43.2" width="446.4" height="345.6"/>
	</defs>
	<clipPath id="SVGID_98_">
		<use xlink:href="#SVGID_97_"  overflow="visible"/>
	</clipPath>
	
		<line clip-path="url(#SVGID_98_)" fill="none" stroke="#000000" stroke-width="0.5" stroke-linejoin="round" stroke-miterlimit="10" stroke-dasharray="1,3" x1="72" y1="43.2" x2="518.4" y2="43.2"/>
</g>
<line fill="none" stroke="#000000" stroke-width="0.5" stroke-linejoin="round" stroke-miterlimit="10" x1="72" y1="43.2" x2="76" y2="43.2"/>
<line fill="none" stroke="#000000" stroke-width="0.5" stroke-linejoin="round" stroke-miterlimit="10" x1="518.4" y1="43.2" x2="514.4" y2="43.2"/>
<path d="M61.66,39.601c0,0.76,0.22,1.36,0.7,1.78s1.14,0.62,2,0.62c0.84,0,1.5-0.2,1.98-0.62s0.72-1.02,0.72-1.78
	c0-0.76-0.24-1.34-0.72-1.76s-1.14-0.64-1.98-0.64c-0.86,0-1.52,0.22-2,0.64S61.66,38.841,61.66,39.601 M62.38,42.721
	c-0.84-0.2-1.5-0.6-1.98-1.18c-0.48-0.58-0.7-1.28-0.7-2.12c0-1.16,0.4-2.08,1.24-2.76c0.82-0.68,1.96-1.02,3.42-1.02
	c1.44,0,2.58,0.34,3.42,1.02c0.82,0.68,1.24,1.6,1.24,2.76c0,0.84-0.24,1.54-0.72,2.12c-0.48,0.58-1.12,0.98-1.96,1.18
	c0.94,0.22,1.68,0.66,2.22,1.3c0.52,0.64,0.8,1.44,0.8,2.36c0,1.42-0.44,2.5-1.3,3.24c-0.88,0.76-2.1,1.12-3.7,1.12
	c-1.62,0-2.86-0.36-3.72-1.12c-0.86-0.74-1.28-1.82-1.28-3.24c0-0.92,0.26-1.72,0.8-2.36C60.68,43.381,61.42,42.941,62.38,42.721
	 M64.36,43.561c-0.94,0-1.68,0.26-2.22,0.76s-0.8,1.18-0.8,2.06s0.26,1.58,0.8,2.08s1.28,0.74,2.22,0.74c0.92,0,1.66-0.24,2.2-0.76
	c0.54-0.5,0.82-1.18,0.82-2.06s-0.28-1.56-0.8-2.06C66.04,43.821,65.3,43.561,64.36,43.561"/>
<line fill="none" stroke="#000000" stroke-linecap="square" stroke-linejoin="round" stroke-miterlimit="10" x1="72" y1="43.2" x2="518.4" y2="43.2"/>
<line fill="none" stroke="#000000" stroke-linecap="square" stroke-linejoin="round" stroke-miterlimit="10" x1="518.4" y1="388.8" x2="518.4" y2="43.2"/>
<line fill="none" stroke="#000000" stroke-linecap="square" stroke-linejoin="round" stroke-miterlimit="10" x1="72" y1="388.8" x2="518.4" y2="388.8"/>
<line fill="none" stroke="#000000" stroke-linecap="square" stroke-linejoin="round" stroke-miterlimit="10" x1="72" y1="388.8" x2="72" y2="43.2"/>
<path d="M214.989,15.704h4.872c3.384,0,5.88,0.72,7.464,2.112c1.584,1.416,2.376,3.624,2.376,6.624c0,3.024-0.816,5.232-2.4,6.648
	c-1.584,1.416-4.08,2.112-7.44,2.112h-4.872V15.704 M217.366,17.648v13.608h2.856c2.4,0,4.176-0.528,5.304-1.632
	c1.104-1.104,1.68-2.832,1.68-5.184s-0.576-4.056-1.68-5.16c-1.128-1.08-2.904-1.632-5.304-1.632H217.366"/>
<polyline points="233.47,15.704 236.998,15.704 241.461,27.608 245.95,15.704 249.478,15.704 249.478,33.2 247.174,33.2 
	247.174,17.84 242.662,29.84 240.286,29.84 235.773,17.84 235.773,33.2 233.47,33.2 233.47,15.704 "/>
<path d="M256.558,17.648v6.216h2.976c1.128,0,1.992-0.264,2.568-0.792c0.576-0.528,0.888-1.296,0.888-2.328
	c0-1.008-0.312-1.776-0.888-2.304c-0.576-0.528-1.44-0.792-2.568-0.792H256.558 M262.486,24.992
	c0.504,0.192,1.008,0.552,1.488,1.104c0.48,0.576,0.96,1.344,1.44,2.328l2.4,4.776h-2.544l-2.232-4.488
	c-0.576-1.152-1.152-1.944-1.68-2.328c-0.552-0.384-1.296-0.576-2.232-0.576h-2.568V33.2h-2.376V15.704h5.352
	c1.992,0,3.48,0.432,4.464,1.248c0.984,0.84,1.488,2.112,1.488,3.792c0,1.104-0.264,2.04-0.768,2.76
	C264.19,24.224,263.446,24.728,262.486,24.992"/>
<path d="M286.774,20.456v2.04c-0.624-0.288-1.248-0.528-1.896-0.696c-0.672-0.144-1.344-0.24-2.04-0.24
	c-1.08,0-1.896,0.168-2.424,0.504c-0.528,0.336-0.792,0.816-0.792,1.464c0,0.504,0.192,0.888,0.576,1.176
	c0.384,0.288,1.152,0.576,2.304,0.816l0.744,0.168c1.536,0.336,2.616,0.816,3.264,1.392c0.624,0.6,0.96,1.44,0.96,2.496
	c0,1.224-0.48,2.184-1.44,2.88c-0.96,0.72-2.304,1.056-3.984,1.056c-0.72,0-1.44-0.072-2.208-0.192c-0.768-0.12-1.56-0.312-2.4-0.6
	v-2.232c0.792,0.432,1.584,0.744,2.352,0.936c0.768,0.216,1.536,0.312,2.304,0.312c1.008,0,1.8-0.168,2.352-0.504
	c0.528-0.336,0.816-0.84,0.816-1.488c0-0.576-0.216-1.032-0.6-1.344c-0.384-0.312-1.248-0.624-2.592-0.912l-0.744-0.168
	c-1.344-0.288-2.328-0.72-2.904-1.296c-0.6-0.576-0.888-1.368-0.888-2.4c0-1.224,0.432-2.184,1.296-2.856
	c0.864-0.672,2.112-1.008,3.744-1.008c0.792,0,1.536,0.072,2.256,0.192C285.526,20.072,286.174,20.24,286.774,20.456"/>
<path d="M300.334,26.648c0-1.584-0.336-2.808-0.984-3.72c-0.672-0.912-1.56-1.368-2.688-1.368c-1.152,0-2.04,0.456-2.688,1.368
	c-0.672,0.912-0.984,2.136-0.984,3.72s0.313,2.832,0.984,3.744c0.648,0.912,1.536,1.344,2.688,1.344
	c1.128,0,2.016-0.432,2.688-1.344C299.998,29.48,300.334,28.232,300.334,26.648 M292.989,31.232v6.936h-2.159V20.072h2.159v1.992
	c0.433-0.768,1.009-1.344,1.704-1.728c0.696-0.384,1.536-0.576,2.496-0.576c1.584,0,2.88,0.648,3.889,1.896
	c0.983,1.272,1.487,2.928,1.487,4.992s-0.504,3.744-1.487,4.992c-1.009,1.248-2.305,1.872-3.889,1.872
	c-0.96,0-1.8-0.192-2.496-0.552C293.998,32.6,293.422,32.024,292.989,31.232"/>
<path d="M315.214,25.472c-0.024-1.176-0.36-2.112-0.984-2.832c-0.647-0.696-1.512-1.056-2.568-1.056c-1.199,0-2.159,0.36-2.88,1.032
	c-0.72,0.672-1.151,1.632-1.248,2.856H315.214 M317.374,26.096v1.056h-9.912c0.096,1.488,0.527,2.64,1.344,3.408
	c0.792,0.768,1.896,1.152,3.336,1.152c0.816,0,1.632-0.096,2.4-0.288c0.768-0.192,1.56-0.504,2.327-0.936v2.04
	c-0.768,0.336-1.56,0.6-2.376,0.744c-0.815,0.144-1.655,0.24-2.472,0.24c-2.112,0-3.768-0.6-4.992-1.8
	c-1.224-1.2-1.824-2.856-1.824-4.944c0-2.136,0.576-3.84,1.729-5.112c1.152-1.248,2.736-1.896,4.704-1.896
	c1.776,0,3.168,0.576,4.2,1.704C316.846,22.616,317.374,24.152,317.374,26.096"/>
<path d="M329.974,25.472c-0.024-1.176-0.36-2.112-0.984-2.832c-0.647-0.696-1.512-1.056-2.567-1.056c-1.2,0-2.16,0.36-2.88,1.032
	c-0.721,0.672-1.152,1.632-1.248,2.856H329.974 M332.134,26.096v1.056h-9.912c0.096,1.488,0.528,2.64,1.344,3.408
	c0.792,0.768,1.896,1.152,3.336,1.152c0.816,0,1.632-0.096,2.4-0.288c0.768-0.192,1.56-0.504,2.328-0.936v2.04
	c-0.769,0.336-1.561,0.6-2.376,0.744c-0.816,0.144-1.656,0.24-2.473,0.24c-2.111,0-3.768-0.6-4.991-1.8
	c-1.225-1.2-1.824-2.856-1.824-4.944c0-2.136,0.576-3.84,1.728-5.112c1.152-1.248,2.736-1.896,4.704-1.896
	c1.776,0,3.168,0.576,4.2,1.704C331.605,22.616,332.134,24.152,332.134,26.096"/>
<path d="M336.958,26.648c0,1.584,0.312,2.832,0.96,3.744c0.647,0.912,1.56,1.344,2.712,1.344c1.128,0,2.016-0.432,2.688-1.344
	c0.648-0.912,0.984-2.16,0.984-3.744s-0.336-2.808-0.984-3.72c-0.672-0.912-1.56-1.368-2.688-1.368
	c-1.152,0-2.064,0.456-2.712,1.368C337.27,23.84,336.958,25.064,336.958,26.648 M344.302,22.064V14.96h2.16V33.2h-2.16v-1.968
	c-0.456,0.792-1.032,1.368-1.728,1.728c-0.696,0.36-1.513,0.552-2.473,0.552c-1.584,0-2.88-0.624-3.888-1.872
	s-1.488-2.928-1.488-4.992s0.48-3.72,1.488-4.992c1.008-1.248,2.304-1.896,3.888-1.896c0.96,0,1.776,0.192,2.473,0.576
	C343.27,20.72,343.846,21.296,344.302,22.064"/>
<path d="M350.686,28.016v-7.944h2.16v7.872c0,1.248,0.24,2.16,0.72,2.784c0.48,0.624,1.2,0.936,2.185,0.936
	c1.151,0,2.088-0.36,2.76-1.104s1.008-1.752,1.008-3.048v-7.44h2.16V33.2h-2.16v-2.016c-0.528,0.816-1.152,1.392-1.824,1.776
	c-0.695,0.36-1.487,0.552-2.399,0.552c-1.513,0-2.664-0.456-3.433-1.392C351.069,31.208,350.686,29.84,350.686,28.016"/>
<path d="M375.55,26.648c0-1.584-0.336-2.808-0.984-3.72c-0.672-0.912-1.56-1.368-2.688-1.368c-1.152,0-2.04,0.456-2.688,1.368
	c-0.672,0.912-0.983,2.136-0.983,3.72s0.312,2.832,0.983,3.744c0.648,0.912,1.536,1.344,2.688,1.344
	c1.128,0,2.016-0.432,2.688-1.344C375.214,29.48,375.55,28.232,375.55,26.648 M368.206,31.232v6.936h-2.16V20.072h2.16v1.992
	c0.432-0.768,1.008-1.344,1.704-1.728c0.695-0.384,1.535-0.576,2.496-0.576c1.584,0,2.88,0.648,3.888,1.896
	c0.983,1.272,1.488,2.928,1.488,4.992s-0.505,3.744-1.488,4.992c-1.008,1.248-2.304,1.872-3.888,1.872
	c-0.961,0-1.801-0.192-2.496-0.552C369.214,32.6,368.638,32.024,368.206,31.232"/>
<rect x="80" y="51.2" fill="none" width="104.209" height="148.425"/>
<rect x="80" y="51.2" fill="none" stroke="#000000" stroke-linecap="square" stroke-linejoin="round" stroke-miterlimit="10" width="104.209" height="148.425"/>
<line fill="none" stroke="#000000" stroke-width="2" stroke-linejoin="round" stroke-miterlimit="10" stroke-dasharray="6,6" x1="91.2" y1="64.156" x2="113.6" y2="64.156"/>
<g>
	<defs>
		<rect id="SVGID_99_" x="84.95" y="57.906" width="12.5" height="12.5"/>
	</defs>
	<clipPath id="SVGID_100_">
		<use xlink:href="#SVGID_99_"  overflow="visible"/>
	</clipPath>
	<path clip-path="url(#SVGID_100_)" d="M91.2,70.156c1.591,0,3.117-0.632,4.243-1.757c1.125-1.125,1.757-2.651,1.757-4.243
		s-0.632-3.118-1.757-4.243c-1.125-1.125-2.652-1.757-4.243-1.757c-1.591,0-3.118,0.632-4.243,1.757
		c-1.125,1.125-1.757,2.651-1.757,4.243s0.632,3.118,1.757,4.243C88.083,69.524,89.609,70.156,91.2,70.156z"/>
	
		<path clip-path="url(#SVGID_100_)" fill="none" stroke="#000000" stroke-width="0.5" stroke-linejoin="round" stroke-miterlimit="10" d="
		M91.2,70.156c1.591,0,3.117-0.632,4.243-1.757c1.125-1.125,1.757-2.651,1.757-4.243s-0.632-3.118-1.757-4.243
		c-1.125-1.125-2.652-1.757-4.243-1.757c-1.591,0-3.118,0.632-4.243,1.757c-1.125,1.125-1.757,2.651-1.757,4.243
		s0.632,3.118,1.757,4.243C88.083,69.524,89.609,70.156,91.2,70.156z"/>
</g>
<g>
	<defs>
		<rect id="SVGID_101_" x="107.35" y="57.906" width="12.5" height="12.5"/>
	</defs>
	<clipPath id="SVGID_102_">
		<use xlink:href="#SVGID_101_"  overflow="visible"/>
	</clipPath>
	<path clip-path="url(#SVGID_102_)" d="M113.6,70.156c1.591,0,3.117-0.632,4.243-1.757c1.125-1.125,1.757-2.651,1.757-4.243
		s-0.632-3.118-1.757-4.243c-1.125-1.125-2.651-1.757-4.243-1.757s-3.118,0.632-4.243,1.757s-1.757,2.651-1.757,4.243
		s0.632,3.118,1.757,4.243S112.009,70.156,113.6,70.156z"/>
	
		<path clip-path="url(#SVGID_102_)" fill="none" stroke="#000000" stroke-width="0.5" stroke-linejoin="round" stroke-miterlimit="10" d="
		M113.6,70.156c1.591,0,3.117-0.632,4.243-1.757c1.125-1.125,1.757-2.651,1.757-4.243s-0.632-3.118-1.757-4.243
		c-1.125-1.125-2.651-1.757-4.243-1.757s-3.118,0.632-4.243,1.757s-1.757,2.651-1.757,4.243s0.632,3.118,1.757,4.243
		S112.009,70.156,113.6,70.156z"/>
</g>
<path d="M139.008,61.34v1.344c-0.416-0.224-0.816-0.384-1.232-0.496c-0.416-0.112-0.816-0.176-1.232-0.176
	c-0.928,0-1.664,0.304-2.176,0.896c-0.512,0.592-0.768,1.424-0.768,2.48c0,1.072,0.256,1.904,0.768,2.496
	c0.512,0.592,1.248,0.88,2.176,0.88c0.416,0,0.816-0.048,1.232-0.16c0.416-0.112,0.816-0.288,1.232-0.512v1.328
	c-0.416,0.192-0.832,0.336-1.248,0.416c-0.432,0.08-0.896,0.128-1.376,0.128c-1.312,0-2.368-0.4-3.136-1.232
	c-0.784-0.816-1.168-1.936-1.168-3.344c0-1.424,0.384-2.544,1.168-3.36s1.856-1.232,3.232-1.232c0.448,0,0.88,0.048,1.296,0.144
	C138.192,61.036,138.608,61.164,139.008,61.34"/>
<path d="M142.368,65.388c0,1.056,0.208,1.888,0.64,2.496c0.432,0.608,1.04,0.896,1.808,0.896c0.752,0,1.344-0.288,1.792-0.896
	c0.432-0.608,0.656-1.44,0.656-2.496s-0.224-1.872-0.656-2.48c-0.448-0.608-1.04-0.912-1.792-0.912
	c-0.768,0-1.376,0.304-1.808,0.912C142.576,63.516,142.368,64.332,142.368,65.388 M147.264,62.332v-4.736h1.44v12.16h-1.44v-1.312
	c-0.304,0.528-0.688,0.912-1.152,1.152c-0.464,0.24-1.008,0.368-1.648,0.368c-1.056,0-1.92-0.416-2.592-1.248
	s-0.992-1.952-0.992-3.328s0.32-2.48,0.992-3.328c0.672-0.832,1.536-1.264,2.592-1.264c0.64,0,1.184,0.128,1.648,0.384
	C146.576,61.436,146.96,61.82,147.264,62.332"/>
<polyline points="158.32,72.396 158.32,73.516 150.016,73.516 150.016,72.396 158.32,72.396 "/>
<polyline points="159.664,57.596 161.104,57.596 161.104,69.756 159.664,69.756 159.664,57.596 "/>
<line fill="none" stroke="#000000" stroke-width="2" stroke-linecap="square" stroke-linejoin="round" stroke-miterlimit="10" x1="91.2" y1="88.094" x2="113.6" y2="88.094"/>
<g>
	<defs>
		<rect id="SVGID_103_" x="84.95" y="81.844" width="12.5" height="12.5"/>
	</defs>
	<clipPath id="SVGID_104_">
		<use xlink:href="#SVGID_103_"  overflow="visible"/>
	</clipPath>
	<path clip-path="url(#SVGID_104_)" d="M91.2,94.094c1.591,0,3.117-0.632,4.243-1.757c1.125-1.125,1.757-2.651,1.757-4.243
		s-0.632-3.118-1.757-4.243c-1.125-1.125-2.652-1.757-4.243-1.757c-1.591,0-3.118,0.632-4.243,1.757
		c-1.125,1.125-1.757,2.651-1.757,4.243s0.632,3.118,1.757,4.243C88.083,93.461,89.609,94.094,91.2,94.094z"/>
	
		<path clip-path="url(#SVGID_104_)" fill="none" stroke="#000000" stroke-width="0.5" stroke-linejoin="round" stroke-miterlimit="10" d="
		M91.2,94.094c1.591,0,3.117-0.632,4.243-1.757c1.125-1.125,1.757-2.651,1.757-4.243s-0.632-3.118-1.757-4.243
		c-1.125-1.125-2.652-1.757-4.243-1.757c-1.591,0-3.118,0.632-4.243,1.757c-1.125,1.125-1.757,2.651-1.757,4.243
		s0.632,3.118,1.757,4.243C88.083,93.461,89.609,94.094,91.2,94.094z"/>
</g>
<g>
	<defs>
		<rect id="SVGID_105_" x="107.35" y="81.844" width="12.5" height="12.5"/>
	</defs>
	<clipPath id="SVGID_106_">
		<use xlink:href="#SVGID_105_"  overflow="visible"/>
	</clipPath>
	<path clip-path="url(#SVGID_106_)" d="M113.6,94.094c1.591,0,3.117-0.632,4.243-1.757c1.125-1.125,1.757-2.651,1.757-4.243
		s-0.632-3.118-1.757-4.243c-1.125-1.125-2.651-1.757-4.243-1.757s-3.118,0.632-4.243,1.757s-1.757,2.651-1.757,4.243
		s0.632,3.118,1.757,4.243S112.009,94.094,113.6,94.094z"/>
	
		<path clip-path="url(#SVGID_106_)" fill="none" stroke="#000000" stroke-width="0.5" stroke-linejoin="round" stroke-miterlimit="10" d="
		M113.6,94.094c1.591,0,3.117-0.632,4.243-1.757c1.125-1.125,1.757-2.651,1.757-4.243s-0.632-3.118-1.757-4.243
		c-1.125-1.125-2.651-1.757-4.243-1.757s-3.118,0.632-4.243,1.757s-1.757,2.651-1.757,4.243s0.632,3.118,1.757,4.243
		S112.009,94.094,113.6,94.094z"/>
</g>
<path d="M139.008,85.278v1.344c-0.416-0.224-0.816-0.384-1.232-0.496c-0.416-0.112-0.816-0.176-1.232-0.176
	c-0.928,0-1.664,0.304-2.176,0.896c-0.512,0.592-0.768,1.424-0.768,2.48c0,1.072,0.256,1.904,0.768,2.496
	c0.512,0.592,1.248,0.88,2.176,0.88c0.416,0,0.816-0.048,1.232-0.16c0.416-0.112,0.816-0.288,1.232-0.512v1.328
	c-0.416,0.192-0.832,0.336-1.248,0.416c-0.432,0.08-0.896,0.128-1.376,0.128c-1.312,0-2.368-0.4-3.136-1.232
	c-0.784-0.816-1.168-1.936-1.168-3.344c0-1.424,0.384-2.544,1.168-3.36s1.856-1.232,3.232-1.232c0.448,0,0.88,0.048,1.296,0.144
	C138.192,84.974,138.608,85.102,139.008,85.278"/>
<path d="M142.368,89.326c0,1.056,0.208,1.888,0.64,2.496c0.432,0.608,1.04,0.896,1.808,0.896c0.752,0,1.344-0.288,1.792-0.896
	c0.432-0.608,0.656-1.44,0.656-2.496s-0.224-1.872-0.656-2.48c-0.448-0.608-1.04-0.912-1.792-0.912
	c-0.768,0-1.376,0.304-1.808,0.912C142.576,87.454,142.368,88.27,142.368,89.326 M147.264,86.27v-4.736h1.44v12.16h-1.44v-1.312
	c-0.304,0.528-0.688,0.912-1.152,1.152c-0.464,0.24-1.008,0.368-1.648,0.368c-1.056,0-1.92-0.416-2.592-1.248
	s-0.992-1.952-0.992-3.328s0.32-2.48,0.992-3.328c0.672-0.832,1.536-1.264,2.592-1.264c0.64,0,1.184,0.128,1.648,0.384
	C146.576,85.374,146.96,85.758,147.264,86.27"/>
<polyline points="158.32,96.334 158.32,97.454 150.016,97.454 150.016,96.334 158.32,96.334 "/>
<polyline points="158.64,84.942 160.16,84.942 162.896,92.286 165.632,84.942 167.152,84.942 163.872,93.694 161.92,93.694 
	158.64,84.942 "/>
<line fill="none" stroke="#000000" stroke-width="2" stroke-linejoin="round" stroke-miterlimit="10" stroke-dasharray="6,6" x1="91.2" y1="112.031" x2="113.6" y2="112.031"/>
<polyline points="91.2,106.031 85.2,118.031 97.2,118.031 91.2,106.031 "/>
<polyline fill="none" stroke="#000000" stroke-width="0.5" stroke-linejoin="round" stroke-miterlimit="10" points="91.2,106.031 
	85.2,118.031 97.2,118.031 91.2,106.031 "/>
<polyline points="113.6,106.031 107.6,118.031 119.6,118.031 113.6,106.031 "/>
<polyline fill="none" stroke="#000000" stroke-width="0.5" stroke-linejoin="round" stroke-miterlimit="10" points="113.6,106.031 
	107.6,118.031 119.6,118.031 113.6,106.031 "/>
<path d="M139.008,109.215v1.344c-0.416-0.224-0.816-0.384-1.232-0.496c-0.416-0.112-0.816-0.176-1.232-0.176
	c-0.928,0-1.664,0.304-2.176,0.896c-0.512,0.592-0.768,1.424-0.768,2.48c0,1.072,0.256,1.904,0.768,2.496
	c0.512,0.592,1.248,0.88,2.176,0.88c0.416,0,0.816-0.048,1.232-0.16c0.416-0.112,0.816-0.288,1.232-0.512v1.328
	c-0.416,0.192-0.832,0.336-1.248,0.416c-0.432,0.08-0.896,0.128-1.376,0.128c-1.312,0-2.368-0.4-3.136-1.232
	c-0.784-0.816-1.168-1.936-1.168-3.344c0-1.424,0.384-2.544,1.168-3.36s1.856-1.232,3.232-1.232c0.448,0,0.88,0.048,1.296,0.144
	C138.192,108.911,138.608,109.039,139.008,109.215"/>
<path d="M142.928,106.399v2.48h2.96v1.12h-2.96v4.752c0,0.72,0.096,1.184,0.288,1.376c0.192,0.208,0.592,0.304,1.2,0.304h1.472v1.2
	h-1.472c-1.12,0-1.888-0.208-2.304-0.624c-0.416-0.416-0.624-1.168-0.624-2.256v-4.752h-1.056v-1.12h1.056v-2.48H142.928"/>
<path d="M148.64,113.263c0,1.056,0.208,1.888,0.64,2.496c0.432,0.608,1.04,0.896,1.808,0.896c0.752,0,1.344-0.288,1.792-0.896
	c0.432-0.608,0.656-1.44,0.656-2.496s-0.224-1.872-0.656-2.48c-0.448-0.608-1.04-0.912-1.792-0.912
	c-0.768,0-1.376,0.304-1.808,0.912C148.848,111.391,148.64,112.207,148.64,113.263 M153.536,110.207v-4.736h1.44v12.16h-1.44v-1.312
	c-0.304,0.528-0.688,0.912-1.152,1.152c-0.464,0.24-1.008,0.368-1.648,0.368c-1.056,0-1.92-0.416-2.592-1.248
	s-0.992-1.952-0.992-3.328s0.32-2.48,0.992-3.328c0.672-0.832,1.536-1.264,2.592-1.264c0.64,0,1.184,0.128,1.648,0.384
	C152.848,109.311,153.232,109.695,153.536,110.207"/>
<polyline points="164.592,120.271 164.592,121.391 156.288,121.391 156.288,120.271 164.592,120.271 "/>
<polyline points="165.936,105.471 167.376,105.471 167.376,117.631 165.936,117.631 165.936,105.471 "/>
<line fill="none" stroke="#000000" stroke-width="2" stroke-linecap="square" stroke-linejoin="round" stroke-miterlimit="10" x1="91.2" y1="135.969" x2="113.6" y2="135.969"/>
<polyline points="91.2,129.969 85.2,141.969 97.2,141.969 91.2,129.969 "/>
<polyline fill="none" stroke="#000000" stroke-width="0.5" stroke-linejoin="round" stroke-miterlimit="10" points="91.2,129.969 
	85.2,141.969 97.2,141.969 91.2,129.969 "/>
<polyline points="113.6,129.969 107.6,141.969 119.6,141.969 113.6,129.969 "/>
<polyline fill="none" stroke="#000000" stroke-width="0.5" stroke-linejoin="round" stroke-miterlimit="10" points="113.6,129.969 
	107.6,141.969 119.6,141.969 113.6,129.969 "/>
<path d="M139.008,133.153v1.344c-0.416-0.224-0.816-0.384-1.232-0.496c-0.416-0.112-0.816-0.176-1.232-0.176
	c-0.928,0-1.664,0.304-2.176,0.896c-0.512,0.592-0.768,1.424-0.768,2.48c0,1.072,0.256,1.904,0.768,2.496
	c0.512,0.592,1.248,0.88,2.176,0.88c0.416,0,0.816-0.048,1.232-0.16c0.416-0.112,0.816-0.288,1.232-0.512v1.328
	c-0.416,0.192-0.832,0.336-1.248,0.416c-0.432,0.08-0.896,0.128-1.376,0.128c-1.312,0-2.368-0.4-3.136-1.232
	c-0.784-0.816-1.168-1.936-1.168-3.344c0-1.424,0.384-2.544,1.168-3.36s1.856-1.232,3.232-1.232c0.448,0,0.88,0.048,1.296,0.144
	C138.192,132.849,138.608,132.977,139.008,133.153"/>
<path d="M142.928,130.337v2.48h2.96v1.12h-2.96v4.752c0,0.72,0.096,1.184,0.288,1.376c0.192,0.208,0.592,0.304,1.2,0.304h1.472v1.2
	h-1.472c-1.12,0-1.888-0.208-2.304-0.624c-0.416-0.416-0.624-1.168-0.624-2.256v-4.752h-1.056v-1.12h1.056v-2.48H142.928"/>
<path d="M148.64,137.201c0,1.056,0.208,1.888,0.64,2.496c0.432,0.608,1.04,0.896,1.808,0.896c0.752,0,1.344-0.288,1.792-0.896
	c0.432-0.608,0.656-1.44,0.656-2.496s-0.224-1.872-0.656-2.48c-0.448-0.608-1.04-0.912-1.792-0.912
	c-0.768,0-1.376,0.304-1.808,0.912C148.848,135.329,148.64,136.145,148.64,137.201 M153.536,134.145v-4.736h1.44v12.16h-1.44v-1.312
	c-0.304,0.528-0.688,0.912-1.152,1.152c-0.464,0.24-1.008,0.368-1.648,0.368c-1.056,0-1.92-0.416-2.592-1.248
	s-0.992-1.952-0.992-3.328s0.32-2.48,0.992-3.328c0.672-0.832,1.536-1.264,2.592-1.264c0.64,0,1.184,0.128,1.648,0.384
	C152.848,133.249,153.232,133.633,153.536,134.145"/>
<polyline points="164.592,144.209 164.592,145.329 156.288,145.329 156.288,144.209 164.592,144.209 "/>
<polyline points="164.912,132.817 166.432,132.817 169.168,140.161 171.904,132.817 173.424,132.817 170.144,141.569 
	168.192,141.569 164.912,132.817 "/>
<line fill="none" stroke="#000000" stroke-width="2" stroke-linejoin="round" stroke-miterlimit="10" stroke-dasharray="6,6" x1="91.2" y1="159.906" x2="113.6" y2="159.906"/>
<polyline points="85.2,165.906 97.2,165.906 97.2,153.906 85.2,153.906 85.2,165.906 "/>
<polyline fill="none" stroke="#000000" stroke-width="0.5" stroke-linejoin="round" stroke-miterlimit="10" points="85.2,165.906 
	97.2,165.906 97.2,153.906 85.2,153.906 85.2,165.906 "/>
<polyline points="107.6,165.906 119.6,165.906 119.6,153.906 107.6,153.906 107.6,165.906 "/>
<polyline fill="none" stroke="#000000" stroke-width="0.5" stroke-linejoin="round" stroke-miterlimit="10" points="107.6,165.906 
	119.6,165.906 119.6,153.906 107.6,153.906 107.6,165.906 "/>
<path d="M133.568,161.138c0,1.056,0.208,1.888,0.64,2.496s1.04,0.896,1.808,0.896c0.752,0,1.344-0.288,1.792-0.896
	c0.432-0.608,0.656-1.44,0.656-2.496s-0.224-1.872-0.656-2.48c-0.448-0.608-1.04-0.912-1.792-0.912
	c-0.768,0-1.376,0.304-1.808,0.912S133.568,160.082,133.568,161.138 M138.464,158.082v-4.736h1.44v12.16h-1.44v-1.312
	c-0.304,0.528-0.688,0.912-1.152,1.152c-0.464,0.24-1.008,0.368-1.648,0.368c-1.056,0-1.92-0.416-2.592-1.248
	c-0.672-0.832-0.992-1.952-0.992-3.328s0.32-2.48,0.992-3.328c0.672-0.832,1.536-1.264,2.592-1.264c0.64,0,1.184,0.128,1.648,0.384
	S138.16,157.57,138.464,158.082"/>
<path d="M144.432,164.178h5.504v1.328h-7.408v-1.328c0.592-0.608,1.408-1.44,2.448-2.496c1.024-1.04,1.68-1.712,1.952-2.016
	c0.512-0.56,0.864-1.04,1.056-1.44c0.192-0.384,0.304-0.784,0.304-1.168c0-0.608-0.224-1.12-0.656-1.504
	c-0.432-0.384-0.992-0.592-1.696-0.592c-0.496,0-1.024,0.096-1.568,0.256c-0.544,0.176-1.136,0.432-1.76,0.784v-1.6
	c0.64-0.256,1.232-0.448,1.776-0.576s1.056-0.192,1.52-0.192c1.2,0,2.16,0.304,2.88,0.912c0.72,0.608,1.088,1.408,1.088,2.416
	c0,0.48-0.096,0.944-0.272,1.36c-0.176,0.432-0.496,0.944-0.976,1.52c-0.128,0.16-0.544,0.592-1.248,1.312
	C146.672,161.874,145.696,162.882,144.432,164.178"/>
<path d="M153.904,161.138c0,1.056,0.208,1.888,0.64,2.496s1.04,0.896,1.808,0.896c0.752,0,1.344-0.288,1.792-0.896
	c0.432-0.608,0.656-1.44,0.656-2.496s-0.224-1.872-0.656-2.48c-0.448-0.608-1.04-0.912-1.792-0.912
	c-0.768,0-1.376,0.304-1.808,0.912S153.904,160.082,153.904,161.138 M158.8,158.082v-4.736h1.44v12.16h-1.44v-1.312
	c-0.304,0.528-0.688,0.912-1.152,1.152c-0.464,0.24-1.008,0.368-1.648,0.368c-1.056,0-1.92-0.416-2.592-1.248
	c-0.672-0.832-0.992-1.952-0.992-3.328s0.32-2.48,0.992-3.328c0.672-0.832,1.536-1.264,2.592-1.264c0.64,0,1.184,0.128,1.648,0.384
	S158.496,157.57,158.8,158.082"/>
<polyline points="169.856,168.146 169.856,169.266 161.552,169.266 161.552,168.146 169.856,168.146 "/>
<polyline points="171.2,153.346 172.64,153.346 172.64,165.506 171.2,165.506 171.2,153.346 "/>
<line fill="none" stroke="#000000" stroke-width="2" stroke-linecap="square" stroke-linejoin="round" stroke-miterlimit="10" x1="91.2" y1="183.844" x2="113.6" y2="183.844"/>
<polyline points="85.2,189.844 97.2,189.844 97.2,177.844 85.2,177.844 85.2,189.844 "/>
<polyline fill="none" stroke="#000000" stroke-width="0.5" stroke-linejoin="round" stroke-miterlimit="10" points="85.2,189.844 
	97.2,189.844 97.2,177.844 85.2,177.844 85.2,189.844 "/>
<polyline points="107.6,189.844 119.6,189.844 119.6,177.844 107.6,177.844 107.6,189.844 "/>
<polyline fill="none" stroke="#000000" stroke-width="0.5" stroke-linejoin="round" stroke-miterlimit="10" points="107.6,189.844 
	119.6,189.844 119.6,177.844 107.6,177.844 107.6,189.844 "/>
<path d="M133.568,185.076c0,1.056,0.208,1.888,0.64,2.496s1.04,0.896,1.808,0.896c0.752,0,1.344-0.288,1.792-0.896
	c0.432-0.608,0.656-1.44,0.656-2.496s-0.224-1.872-0.656-2.48c-0.448-0.608-1.04-0.912-1.792-0.912
	c-0.768,0-1.376,0.304-1.808,0.912S133.568,184.02,133.568,185.076 M138.464,182.02v-4.736h1.44v12.16h-1.44v-1.312
	c-0.304,0.528-0.688,0.912-1.152,1.152c-0.464,0.24-1.008,0.368-1.648,0.368c-1.056,0-1.92-0.416-2.592-1.248
	c-0.672-0.832-0.992-1.952-0.992-3.328s0.32-2.48,0.992-3.328c0.672-0.832,1.536-1.264,2.592-1.264c0.64,0,1.184,0.128,1.648,0.384
	S138.16,181.508,138.464,182.02"/>
<path d="M144.432,188.116h5.504v1.328h-7.408v-1.328c0.592-0.608,1.408-1.44,2.448-2.496c1.024-1.04,1.68-1.712,1.952-2.016
	c0.512-0.56,0.864-1.04,1.056-1.44c0.192-0.384,0.304-0.784,0.304-1.168c0-0.608-0.224-1.12-0.656-1.504
	c-0.432-0.384-0.992-0.592-1.696-0.592c-0.496,0-1.024,0.096-1.568,0.256c-0.544,0.176-1.136,0.432-1.76,0.784v-1.6
	c0.64-0.256,1.232-0.448,1.776-0.576s1.056-0.192,1.52-0.192c1.2,0,2.16,0.304,2.88,0.912c0.72,0.608,1.088,1.408,1.088,2.416
	c0,0.48-0.096,0.944-0.272,1.36c-0.176,0.432-0.496,0.944-0.976,1.52c-0.128,0.16-0.544,0.592-1.248,1.312
	C146.672,185.812,145.696,186.82,144.432,188.116"/>
<path d="M153.904,185.076c0,1.056,0.208,1.888,0.64,2.496s1.04,0.896,1.808,0.896c0.752,0,1.344-0.288,1.792-0.896
	c0.432-0.608,0.656-1.44,0.656-2.496s-0.224-1.872-0.656-2.48c-0.448-0.608-1.04-0.912-1.792-0.912
	c-0.768,0-1.376,0.304-1.808,0.912S153.904,184.02,153.904,185.076 M158.8,182.02v-4.736h1.44v12.16h-1.44v-1.312
	c-0.304,0.528-0.688,0.912-1.152,1.152c-0.464,0.24-1.008,0.368-1.648,0.368c-1.056,0-1.92-0.416-2.592-1.248
	c-0.672-0.832-0.992-1.952-0.992-3.328s0.32-2.48,0.992-3.328c0.672-0.832,1.536-1.264,2.592-1.264c0.64,0,1.184,0.128,1.648,0.384
	S158.496,181.508,158.8,182.02"/>
<polyline points="169.856,192.084 169.856,193.204 161.552,193.204 161.552,192.084 169.856,192.084 "/>
<polyline points="170.176,180.692 171.696,180.692 174.432,188.036 177.168,180.692 178.688,180.692 175.408,189.444 
	173.456,189.444 170.176,180.692 "/>
</svg>
